EESchema Schematic File Version 4
LIBS:Tiny45-Dimmer-cache
EELAYER 26 0
EELAYER END
$Descr A4 11693 8268
encoding utf-8
Sheet 1 1
Title "Dimmerschaltung für Tischlampe mit 12V-LED-Streifen"
Date "2 Juli 2019"
Rev "1.0"
Comp ""
Comment1 ""
Comment2 ""
Comment3 ""
Comment4 ""
$EndDescr
$Comp
L 123:AVR-ISP J1
U 1 1 5D1B48E2
P 9450 2750
F 0 "J1" H 9250 3050 50  0000 C CNN
F 1 "AVR-ISP" H 9450 2950 50  0000 C CNN
F 2 "Connector_IDC:IDC-Header_2x03_P2.54mm_Vertical" H 9450 2750 50  0001 C CNN
F 3 "~" H 9450 2750 50  0001 C CNN
	1    9450 2750
	1    0    0    -1  
$EndComp
$Comp
L 123:ATtiny45V-10PU U2
U 1 1 5D1B2F90
P 20300 24550
F 0 "U2" H 20350 24600 50  0000 L CNN
F 1 "ATtiny45V-10PU" H 7600 45000 50  0000 L CNN
F 2 "Package_DIP:DIP-8_W7.62mm" H 7850 45050 50  0001 C CIN
F 3 "http://ww1.microchip.com/downloads/en/DeviceDoc/atmel-2586-avr-8-bit-microcontroller-attiny25-attiny45-attiny85_datasheet.pdf" H 8650 45050 50  0001 C CNN
	1    20300 24550
	1    0    0    -1  
$EndComp
Wire Wire Line
	9050 2650 8000 2650
Wire Wire Line
	8000 2650 8000 3450
Wire Wire Line
	9050 2750 7750 2750
Wire Wire Line
	7750 2750 7750 3450
Wire Wire Line
	9050 2850 8900 2850
Wire Wire Line
	8900 2850 8900 4950
Wire Wire Line
	8900 4950 7500 4950
Wire Wire Line
	7500 4950 7500 4650
Wire Wire Line
	9850 2750 10200 2750
Wire Wire Line
	10200 2750 10200 2300
Wire Wire Line
	10200 2300 9200 2300
Wire Wire Line
	8250 2300 8250 3450
Wire Wire Line
	9850 2850 10000 2850
Wire Wire Line
	8250 4800 8250 4650
Wire Wire Line
	9910 2650 9850 2650
Wire Wire Line
	7500 3300 7500 3450
Wire Wire Line
	8000 2450 8000 2650
Connection ~ 8000 2650
Text GLabel 8000 1500 1    50   Input ~ 0
PWM-
Wire Wire Line
	8000 1500 8000 1850
Text GLabel 9200 1550 1    50   Input ~ 0
PWM-LED
Wire Wire Line
	9200 1550 9200 2300
Connection ~ 9200 2300
Wire Wire Line
	9200 2300 8250 2300
Text GLabel 8000 5150 3    50   Input ~ 0
PWM+
Wire Wire Line
	8000 4650 8000 5150
Text GLabel 7750 5150 3    50   Input ~ 0
LampeAnAus
Wire Wire Line
	7750 5150 7750 4650
$Comp
L 123:BTS141 Q1
U 1 1 5D1B9178
P 5470 5780
F 0 "Q1" H 5676 5826 50  0000 L CNN
F 1 "BTS141" H 5676 5735 50  0000 L CNN
F 2 "Package_TO_SOT_SMD:ATPAK-2" H 5420 6230 50  0001 C CIN
F 3 "https://www.infineon.com/dgdl/irf7665s2pbf.pdf?fileId=5546d462533600a401535603d3ba1c86" H 5470 5780 50  0001 L CNN
	1    5470 5780
	1    0    0    -1  
$EndComp
Wire Wire Line
	2220 5630 1870 5630
Wire Wire Line
	1870 5630 1870 6030
Wire Wire Line
	1870 5630 1270 5630
Wire Wire Line
	1270 5630 1270 6030
Connection ~ 1870 5630
Wire Wire Line
	2820 5630 3120 5630
Wire Wire Line
	3120 5630 3120 6030
Wire Wire Line
	3120 5630 3720 5630
Wire Wire Line
	3720 5630 3720 6030
Connection ~ 3120 5630
Wire Wire Line
	1270 6330 1270 6630
Wire Wire Line
	1270 6630 1870 6630
Wire Wire Line
	1870 6630 1870 6330
Wire Wire Line
	1870 6630 2520 6630
Wire Wire Line
	3120 6630 3120 6330
Connection ~ 1870 6630
Wire Wire Line
	3120 6630 3720 6630
Wire Wire Line
	3720 6630 3720 6330
Connection ~ 3120 6630
Wire Wire Line
	1270 4530 1270 4730
Connection ~ 1270 5630
Wire Wire Line
	4220 5630 3720 5630
Connection ~ 3720 5630
Wire Wire Line
	1270 6880 1270 6630
Connection ~ 1270 6630
Wire Wire Line
	1270 4080 1270 4230
Wire Wire Line
	3720 6630 5020 6630
Wire Wire Line
	5570 6630 5570 5980
Connection ~ 3720 6630
$Comp
L Connector_Generic:Conn_01x02 J2
U 1 1 5D1C0210
P 5920 5180
F 0 "J2" H 5999 5172 50  0000 L CNN
F 1 "12V-LED-Streifen" H 5999 5081 50  0000 L CNN
F 2 "Connector_PinHeader_2.54mm:PinHeader_1x02_P2.54mm_Vertical" H 5920 5180 50  0001 C CNN
F 3 "~" H 5920 5180 50  0001 C CNN
	1    5920 5180
	1    0    0    -1  
$EndComp
Wire Wire Line
	5020 6280 5020 6630
Connection ~ 5020 6630
Wire Wire Line
	5020 6630 5570 6630
Wire Wire Line
	5270 5780 5020 5780
Wire Wire Line
	5020 5780 5020 5980
Wire Wire Line
	5720 5280 5570 5280
Wire Wire Line
	5570 5280 5570 5580
Wire Wire Line
	5720 5180 5570 5180
Wire Wire Line
	5570 5180 5570 4730
Wire Wire Line
	5570 4730 1270 4730
Connection ~ 1270 4730
Wire Wire Line
	1270 4730 1270 5630
Text GLabel 5020 5430 1    50   Input ~ 0
PWM-LED
Wire Wire Line
	5020 5430 5020 5780
Connection ~ 5020 5780
Wire Wire Line
	2520 5930 2520 6630
Connection ~ 2520 6630
Wire Wire Line
	2520 6630 3120 6630
$Comp
L 123:TTP223 U3
U 1 1 5D1CF354
P 2350 1550
F 0 "U3" H 1850 1750 50  0000 C CNN
F 1 "TTP223" H 2400 1750 50  0000 C CNN
F 2 "" H 2350 1925 50  0001 C CIN
F 3 "http://www.fairchildsemi.com/ds/LM/LM78L05A.pdf" H 2350 1500 50  0001 C CNN
	1    2350 1550
	1    0    0    -1  
$EndComp
$Comp
L 123:TTP223 U4
U 1 1 5D1CF53A
P 2350 2400
F 0 "U4" H 1850 2600 50  0000 C CNN
F 1 "TTP223" H 2400 2600 50  0000 C CNN
F 2 "" H 2350 2775 50  0001 C CIN
F 3 "http://www.fairchildsemi.com/ds/LM/LM78L05A.pdf" H 2350 2350 50  0001 C CNN
	1    2350 2400
	1    0    0    -1  
$EndComp
$Comp
L 123:TTP223 U5
U 1 1 5D1CF597
P 2350 3200
F 0 "U5" H 1850 3400 50  0000 C CNN
F 1 "TTP223" H 2400 3400 50  0000 C CNN
F 2 "" H 2350 3575 50  0001 C CIN
F 3 "http://www.fairchildsemi.com/ds/LM/LM78L05A.pdf" H 2350 3150 50  0001 C CNN
	1    2350 3200
	1    0    0    -1  
$EndComp
Wire Wire Line
	2650 1850 2950 1850
Wire Wire Line
	2950 1850 2950 2700
Wire Wire Line
	2650 2700 2950 2700
Connection ~ 2950 2700
Wire Wire Line
	2950 2700 2950 3500
Wire Wire Line
	2650 3500 2950 3500
Connection ~ 2950 3500
Wire Wire Line
	2950 3500 2950 3800
Wire Wire Line
	2650 3200 3150 3200
Wire Wire Line
	3150 3200 3150 2400
Wire Wire Line
	2650 2400 3150 2400
Connection ~ 3150 2400
Wire Wire Line
	3150 2400 3150 1550
Wire Wire Line
	2650 1550 3150 1550
Connection ~ 3150 1550
Wire Wire Line
	3150 1550 3150 1200
Text GLabel 3550 1700 2    50   Input ~ 0
PWM+
Text GLabel 3550 2550 2    50   Input ~ 0
LampeAnAus
Text GLabel 3550 3350 2    50   Input ~ 0
PWM-
Wire Wire Line
	3550 1700 2650 1700
Wire Wire Line
	3550 2550 2650 2550
Wire Wire Line
	3550 3350 2650 3350
Text Notes 1950 2150 0    50   Italic 0
Brücke!
Wire Notes Line
	2100 2150 2300 2400
Wire Notes Line
	2300 2400 2300 2500
Wire Notes Line
	2300 2500 2350 2500
Wire Notes Line
	2350 2500 2350 2400
Wire Notes Line
	2350 2400 2300 2400
Wire Notes Line
	2300 2400 2350 2500
Wire Notes Line
	2350 2400 2300 2500
$Comp
L 123:GNDD #PWR0101
U 1 1 5D1D4F2A
P 2950 3800
F 0 "#PWR0101" H 2950 3550 50  0001 C CNN
F 1 "GNDD" H 2950 3645 50  0001 C CNN
F 2 "" H 2950 3800 50  0001 C CNN
F 3 "" H 2950 3800 50  0001 C CNN
	1    2950 3800
	1    0    0    -1  
$EndComp
$Comp
L 123:GNDD #PWR0102
U 1 1 5D1D9B4E
P 1270 6880
F 0 "#PWR0102" H 1270 6630 50  0001 C CNN
F 1 "GNDD" H 1270 6725 50  0001 C CNN
F 2 "" H 1270 6880 50  0001 C CNN
F 3 "" H 1270 6880 50  0001 C CNN
	1    1270 6880
	1    0    0    -1  
$EndComp
$Comp
L 123:GNDD #PWR0103
U 1 1 5D1D9BC2
P 8250 4800
F 0 "#PWR0103" H 8250 4550 50  0001 C CNN
F 1 "GNDD" H 8250 4645 50  0001 C CNN
F 2 "" H 8250 4800 50  0001 C CNN
F 3 "" H 8250 4800 50  0001 C CNN
	1    8250 4800
	1    0    0    -1  
$EndComp
$Comp
L 123:GNDD #PWR0104
U 1 1 5D1D9DA5
P 10000 2850
F 0 "#PWR0104" H 10000 2600 50  0001 C CNN
F 1 "GNDD" H 10000 2695 50  0001 C CNN
F 2 "" H 10000 2850 50  0001 C CNN
F 3 "" H 10000 2850 50  0001 C CNN
	1    10000 2850
	0    -1   -1   0   
$EndComp
$Comp
L 123:+5V #PWR0105
U 1 1 5D1EA1F8
P 3150 1200
F 0 "#PWR0105" H 3150 1050 50  0001 C CNN
F 1 "+5V" H 3150 1374 50  0000 C CNN
F 2 "" H 3150 1200 50  0001 C CNN
F 3 "" H 3150 1200 50  0001 C CNN
	1    3150 1200
	1    0    0    -1  
$EndComp
$Comp
L 123:+5V #PWR0106
U 1 1 5D1EA247
P 9910 2650
F 0 "#PWR0106" H 9910 2500 50  0001 C CNN
F 1 "+5V" V 9910 2777 50  0000 L CNN
F 2 "" H 9910 2650 50  0001 C CNN
F 3 "" H 9910 2650 50  0001 C CNN
	1    9910 2650
	0    1    1    0   
$EndComp
$Comp
L 123:+5V #PWR0107
U 1 1 5D1EA2FF
P 4220 5630
F 0 "#PWR0107" H 4220 5480 50  0001 C CNN
F 1 "+5V" V 4220 5757 50  0000 L CNN
F 2 "" H 4220 5630 50  0001 C CNN
F 3 "" H 4220 5630 50  0001 C CNN
	1    4220 5630
	0    1    1    0   
$EndComp
$Comp
L 123:+12V #PWR0108
U 1 1 5D1F7377
P 1270 4080
F 0 "#PWR0108" H 1270 3930 50  0001 C CNN
F 1 "+12V" H 1270 4254 50  0000 C CNN
F 2 "" H 1270 4080 50  0001 C CNN
F 3 "" H 1270 4080 50  0001 C CNN
	1    1270 4080
	1    0    0    -1  
$EndComp
$Comp
L 123:D D1
U 1 1 5D1FC6DE
P 1270 4380
F 0 "D1" V 1316 4301 50  0000 R CNN
F 1 "MBR3100" V 1225 4301 50  0000 R CNN
F 2 "" H 1270 4380 50  0001 C CNN
F 3 "~" H 1270 4380 50  0001 C CNN
	1    1270 4380
	0    -1   -1   0   
$EndComp
$Comp
L 123:R R1
U 1 1 5D207D12
P 5020 6130
F 0 "R1" H 5090 6176 50  0000 L CNN
F 1 "100k" H 5090 6085 50  0000 L CNN
F 2 "" V 4950 6130 50  0001 C CNN
F 3 "~" H 5020 6130 50  0001 C CNN
	1    5020 6130
	1    0    0    -1  
$EndComp
$Comp
L 123:C C4
U 1 1 5D20E9AD
P 3720 6180
F 0 "C4" H 3835 6226 50  0000 L CNN
F 1 "100n (am µP)" H 3835 6135 50  0000 L CNN
F 2 "" H 3758 6030 50  0001 C CNN
F 3 "~" H 3720 6180 50  0001 C CNN
	1    3720 6180
	1    0    0    -1  
$EndComp
$Comp
L 123:C C2
U 1 1 5D20EAA7
P 1870 6180
F 0 "C2" H 1985 6226 50  0000 L CNN
F 1 "100n" H 1985 6135 50  0000 L CNN
F 2 "" H 1908 6030 50  0001 C CNN
F 3 "~" H 1870 6180 50  0001 C CNN
	1    1870 6180
	1    0    0    -1  
$EndComp
$Comp
L 123:CP C3
U 1 1 5D21709A
P 3120 6180
F 0 "C3" H 3238 6226 50  0000 L CNN
F 1 "1µ/10" H 3238 6135 50  0000 L CNN
F 2 "" H 3158 6030 50  0001 C CNN
F 3 "~" H 3120 6180 50  0001 C CNN
	1    3120 6180
	1    0    0    -1  
$EndComp
$Comp
L 123:CP C1
U 1 1 5D217110
P 1270 6180
F 0 "C1" H 1388 6226 50  0000 L CNN
F 1 "10µ/25" H 1388 6135 50  0000 L CNN
F 2 "" H 1308 6030 50  0001 C CNN
F 3 "~" H 1270 6180 50  0001 C CNN
	1    1270 6180
	1    0    0    -1  
$EndComp
$Comp
L 123:LP2950-5.0_TO92 U1
U 1 1 5D2207E1
P 2520 5630
F 0 "U1" H 2520 5872 50  0000 C CNN
F 1 "LP2950-5.0" H 2520 5781 50  0000 C CNN
F 2 "Package_TO_SOT_THT:TO-92_Inline" H 2520 5855 50  0001 C CIN
F 3 "http://www.ti.com/lit/ds/symlink/lp2951-n.pdf" H 2520 5580 50  0001 C CNN
	1    2520 5630
	1    0    0    -1  
$EndComp
$Comp
L 123:Jumper JP1
U 1 1 5D2275B3
P 8000 2150
F 0 "JP1" V 8046 2062 50  0000 R CNN
F 1 "Bei ISP abziehen!" V 7955 2062 50  0000 R CNN
F 2 "" H 8000 2150 50  0001 C CNN
F 3 "~" H 8000 2150 50  0001 C CNN
	1    8000 2150
	0    -1   -1   0   
$EndComp
$Comp
L 123:+5V #PWR0109
U 1 1 5D22C2BE
P 7500 3300
F 0 "#PWR0109" H 7500 3150 50  0001 C CNN
F 1 "+5V" V 7500 3427 50  0000 L CNN
F 2 "" H 7500 3300 50  0001 C CNN
F 3 "" H 7500 3300 50  0001 C CNN
	1    7500 3300
	1    0    0    -1  
$EndComp
$Bitmap
Pos 5180 7170
Scale 1.000000
Data
89 50 4E 47 0D 0A 1A 0A 00 00 00 0D 49 48 44 52 00 00 01 17 00 00 00 CB 08 02 00 00 00 CB 3A 40 
63 00 00 00 03 73 42 49 54 08 08 08 DB E1 4F E0 00 00 20 00 49 44 41 54 78 9C ED 9D 67 5C 14 D7 
D7 80 67 B6 B0 EC 2E DB 97 DE 2D 68 34 6A 22 11 62 49 62 12 4B 34 12 F4 A7 F8 27 1A 35 F6 0E 6A 
6C 41 C4 C4 60 6F 90 A8 B1 17 04 A3 21 B1 B7 48 04 D1 88 35 60 01 8D 05 01 A5 29 BD 49 DD 33 EF 
87 FB 66 B2 B2 B0 2C 6C C7 FB 7C D2 D9 D9 3B 77 97 79 76 66 EE 3D F7 1C 92 A2 28 02 83 C1 68 01 
C3 D8 1D C0 60 CC 1E 6C 11 06 A3 2D D8 22 0C 46 5B B0 45 18 8C B6 60 8B 30 18 6D C1 16 61 30 DA 
82 2D C2 60 B4 05 5B 84 C1 68 0B B6 08 83 D1 16 6C 11 06 A3 2D D8 22 0C 46 5B B0 45 18 8C B6 60 
8B 30 18 6D C1 16 61 30 DA 82 2D C2 60 B4 05 5B 84 C1 68 0B B6 08 83 D1 16 6C 11 06 A3 2D D8 22 
0C 46 5B B0 45 18 8C B6 60 8B 30 18 6D C1 16 61 30 DA 82 2D C2 60 B4 05 5B 84 C1 68 0B B6 08 83 
D1 16 6C 11 06 A3 2D D8 22 0C 46 5B B0 45 18 8C B6 60 8B 30 18 6D C1 16 61 30 DA 82 2D C2 60 B4 
05 5B 84 C1 68 0B B6 08 83 D1 16 6C 11 06 A3 2D D8 22 0C 46 5B B0 45 18 8C B6 60 8B 30 18 6D C1 
16 61 30 DA 82 2D 32 7B 28 8A 32 76 17 DE 74 B0 45 E6 CD AB 57 AF BE FD F6 DB 84 84 84 8B 17 2F 
62 9D 8C 05 89 BF 7A 73 84 A2 A8 8A 8A 8A ED DB B7 2F 5F BE BC AA AA AA B6 B6 96 A2 28 26 93 19 
1A 1A BA 70 E1 42 92 24 49 92 34 76 1F DF 20 F0 B5 C8 CC A0 28 AA A8 A8 28 38 38 D8 D6 D6 76 D1 
A2 45 A5 A5 A5 1C 0E C7 DF DF DF C2 C2 02 00 BE FD F6 5B 36 9B ED EB EB 9B 95 95 65 EC 9E BE 49 
50 18 33 01 00 8A 8B 8B 97 2F 5F 6E 65 65 85 FE 76 24 49 B2 58 AC 82 82 02 8A A2 14 0A C5 89 13 
27 38 1C 0E 7A C9 C2 C2 62 FF FE FD 35 35 35 C6 EE F5 1B 01 B6 C8 0C 00 80 82 82 82 E0 E0 60 3E 
9F 8F 24 61 B1 58 DF 7D F7 5D 51 51 51 BD 3D 63 63 63 B9 5C 2E 7D 47 C7 66 B3 C3 C2 C2 2A 2B 2B 
01 C0 28 3D 7F 43 C0 16 99 34 00 90 97 97 17 14 14 24 95 4A D1 75 86 C5 62 CD 9C 39 33 3B 3B 5B 
FD 1B D7 AF 5F CF 62 B1 E8 A7 23 99 4C 56 51 51 81 5D D2 13 D8 22 13 05 00 72 73 73 17 2C 58 40 
5F 7F 48 92 B4 B4 B4 FC E3 8F 3F 34 6F E4 C7 1F 7F 64 B1 58 F4 DB C7 8D 1B 57 5C 5C 8C 5D D2 39 
D8 22 93 03 00 B2 B3 B3 E7 CE 9D CB E3 F1 90 00 0C 06 E3 E3 8F 3F 4E 4F 4F 6F 59 6B F6 F6 F6 F4 
3D 1E 49 92 63 C7 8E 2D 2C 2C C4 2E E9 10 6C 91 09 01 00 CF 9E 3D 93 48 24 F4 D8 0F 93 C9 9C 3F 
7F BE 4E 06 09 2E 5F BE CC E7 F3 E9 7B 3C 0E 87 73 E2 C4 09 EC 92 4E C0 16 99 04 00 90 9E 9E 3E 
6D DA 34 F4 F0 43 92 24 93 C9 0C 0A 0A 42 13 41 3A 24 31 31 51 F9 16 31 20 20 20 33 33 13 BB A4 
25 D8 22 23 03 00 A9 A9 A9 13 27 4E B4 B0 B0 A0 1F 7E 22 22 22 EA EA EA F4 74 C4 B8 B8 38 74 51 
A2 EF F1 A6 4C 99 F2 EC D9 33 EC 52 8B C1 16 19 0D 00 88 88 88 60 B3 D9 CA 93 3F A7 4E 9D 32 D8 
D9 BC 77 EF 5E 36 9B 4D DF E3 09 04 82 87 0F 1F 62 97 5A 00 B6 C8 08 00 C0 93 27 4F 26 4F 9E CC 
60 FC 7F EC 88 58 2C 8E 89 89 31 4A 67 56 AC 58 61 61 61 41 BB 64 65 65 75 FF FE 7D EC 52 B3 C0 
16 19 14 00 B8 7B F7 AE 72 F0 01 9F CF 9F 37 6F 5E 4E 4E 8E 71 3B 76 F7 EE 5D 0E 87 43 BB D4 A1 
43 87 D8 D8 58 EC 92 86 60 8B 0C 04 00 DC BE 7D 5B D9 1F A1 50 D8 AC C9 1F 03 90 96 96 26 12 89 
68 97 D8 6C F6 CF 3F FF 0C 00 58 27 F5 60 8B F4 0E 00 C4 C4 C4 78 78 78 A0 B3 93 C9 64 0E 1F 3E 
3C 31 31 D1 D8 FD 6A 94 9C 9C 1C B1 58 4C BB C4 60 30 46 8C 18 D1 64 B4 C4 9B 0C B6 48 5F A0 9F 
F0 1D 3B 76 28 47 0F 48 A5 D2 7B F7 EE 19 BB 6B 1A F1 E2 C5 8B 65 CB 96 31 99 4C D4 79 4B 4B 4B 
3C BF D4 18 D8 22 BD 90 97 97 37 73 E6 4C DA 1F 36 9B FD F5 D7 5F 3F 7C F8 D0 D8 FD 6A 36 C7 8E 
1D 53 7E 5E E2 70 38 BF FE FA AB 42 A1 C0 3A 29 83 2D D2 31 00 10 1F 1F 4F 07 EF 70 38 9C A9 53 
A7 3E 7D FA D4 D8 FD D2 8A E2 E2 E2 3E 7D FA 28 AF FC B3 B6 B6 AE AD AD C5 2E 21 B0 45 BA 01 DD 
BF 1D 3B 76 4C F9 FE 4D 28 14 C6 C5 C5 19 BB 6B BA A1 AE AE 2E 3F 3F 7F C2 84 09 0C 06 03 E9 C4 
60 30 82 83 83 75 1E 5D 61 8E 60 8B 74 80 42 A1 B0 B5 B5 A5 E5 B1 B2 B2 9A 3F 7F BE D1 07 AF F5 
44 69 69 69 68 68 28 BD EC 42 28 14 EE DA B5 AB BA BA FA 4D BE 2E 61 8B B4 02 00 D6 AD 5B 47 3F 
82 5B 59 59 2D 59 B2 24 2F 2F CF D8 FD D2 3B 15 15 15 1B 37 6E 54 1E 16 6F 4D 17 DE E6 82 2D 6A 
09 00 A0 50 28 42 43 43 91 3F 28 26 4D 2E 97 AB 2E 3E 6D DD 54 56 56 FE F4 D3 4F 22 91 88 FE 11 
D9 B8 71 63 59 59 99 B1 FB 65 68 B0 45 CD 03 00 FE FA EB 2F 2E 97 4B DF BF 89 44 A2 35 6B D6 94 
96 96 1A BB 6B 46 23 2D 2D ED AB AF BE A2 AF 4B 42 A1 70 E5 CA 95 6F D4 72 40 6C 51 33 A8 AB AB 
3B 7C F8 30 7D FF 26 12 89 C2 C2 C2 2A 2A 2A 8C DD 2F 93 A0 A6 A6 66 F7 EE DD 02 81 80 1E C7 93 
C9 64 F9 F9 F9 6F 82 4B D8 A2 A6 01 00 E4 0F 8A BF 36 9D E0 37 13 A4 B6 B6 36 28 28 88 5E 0E 68 
65 65 B5 68 D1 A2 DC DC DC D6 ED 12 B6 48 1D 00 50 55 55 25 97 CB E9 FB 37 81 40 B0 63 C7 8E EA 
EA 6A 63 77 CD A4 51 28 14 87 0F 1F 56 0E 23 92 4A A5 CF 9F 3F 6F AD 2E 61 8B 1A 06 F9 B3 78 F1 
62 B4 78 01 4D FE EC DF BF 1F 4F 8F 68 0E 00 1C 3D 7A 54 22 91 28 8F E3 45 47 47 B7 3E 97 B0 45 
F5 01 80 C7 8F 1F F7 ED DB 97 5E 0A 2A 91 48 50 D8 8B B1 BB 66 AE 9C 3A 75 AA 67 CF 9E F4 EF D1 
B8 71 E3 FE F9 E7 9F D6 E4 12 B6 E8 3F 00 A0 AC AC 6C D3 A6 4D 56 56 56 48 21 91 48 74 FC F8 71 
53 FB 7B 83 66 18 BB 9B F5 39 76 EC 98 50 28 44 17 25 26 93 E9 EF EF 7F E7 CE 1D 13 EC 67 0B C0 
D9 EE 09 82 20 28 8A BA 70 E1 42 4C 4C CC 86 0D 1B 14 0A 05 52 48 20 10 1C 3F 7E BC 6F DF BE C6 
EE 1D 41 10 04 45 51 95 95 95 7F FF FD F7 BD 7B F7 72 72 72 1E 3C 78 90 92 92 92 9A 9A 5A 57 57 
87 76 70 73 73 23 08 22 3D 3D 9D 20 08 4B 4B CB 81 03 07 8E 18 31 E2 ED B7 DF BE 7E FD FA BB EF 
BE DB A5 4B 17 E5 A0 52 63 41 51 94 B3 B3 33 5A 64 41 10 04 49 92 BE BE BE 4B 96 2C F1 F4 F4 34 
7A DF B4 C2 A8 0E 1B 1F 00 28 2A 2A 52 5E 3C 27 12 89 4E 9E 3C 69 EC 7E FD 07 00 EC DE BD DB CE 
CE 0E 0D 22 8B C5 62 3B 3B 3B 5F 5F DF C8 C8 48 34 27 A3 4A 71 71 F1 81 03 07 7C 7D 7D DD DD DD 
1D 1C 1C 2C 2D 2D 85 42 A1 93 93 13 7A 8B B1 3F 10 05 00 CE CE CE CA 85 2D 06 0D 1A 74 F9 F2 65 
F3 BD 2E BD B9 16 A1 E4 D7 CB 96 2D 43 67 27 49 92 1C 0E E7 C8 91 23 C6 EE D7 7F 00 C0 E5 CB 97 
9D 9C 9C 90 3C E1 E1 E1 9F 7E FA A9 8D 8D 8D 58 2C 56 FD 35 14 8B C5 AA DB C5 62 B1 AB AB EB FA 
F5 EB FF FE FB 6F 34 62 26 91 48 9E 3F 7F 6E EC 4F F6 FF 5C BF 7E 5D 79 EC 41 20 10 98 E9 12 A6 
37 D1 22 94 7C 74 CE 9C 39 68 FD 02 9A FF B9 76 ED 9A B1 FB F5 1A 00 10 1E 1E CE E1 70 2C 2C 2C 
7C 7C 7C A4 52 29 ED 06 3A F3 48 92 14 8B C5 42 A1 90 7C 1D A1 50 88 84 41 CE D0 6A 59 5B 5B 6F 
DB B6 4D 2E 97 3B 38 38 DC BC 79 D3 74 4E D6 A4 A4 A4 E1 C3 87 D3 B1 54 3D 7B F6 3C 7D FA B4 79 
8D E5 BC 59 16 01 40 6C 6C 2C 3D BF 8E E2 AF 6F DD BA 65 EC 7E D5 87 EE A4 48 24 42 A7 97 58 2C 
76 70 70 40 AB 65 35 6F 07 00 DC DD DD 69 C1 08 82 E0 72 B9 9F 7C F2 09 8F C7 B3 B7 B7 D7 5F FF 
5B C0 85 0B 17 D0 2F 02 FD 4B F1 FB EF BF EB 2F 29 9F 6E 79 53 2C 02 80 8C 8C 8C C0 C0 40 3A 04 
0E A5 8C 32 76 BF 1A 40 A1 50 08 04 02 94 E4 11 A9 DE B7 6F DF 7F FE F9 47 9B 36 0B 0A 0A C2 C2 
C2 7A F4 E8 41 92 24 83 C1 E8 D8 B1 23 8F C7 DB BF 7F BF E9 5C 91 10 B1 B1 B1 CA 2E 89 C5 E2 A8 
A8 28 D3 9F A3 6B FD 16 01 C0 F3 E7 CF 67 CF 9E 6D 69 69 89 4E 4A 36 9B 3D 7E FC 78 D3 8C DF 01 
00 E5 C7 1B 92 24 1D 1D 1D 75 D8 B8 A3 A3 23 3A 47 2D 2C 2C 38 1C 8E 44 22 D1 55 E3 3A 24 35 35 
75 D2 A4 49 74 45 B3 F6 ED DB EF D9 B3 C7 94 E3 45 5A B3 45 00 90 96 96 46 27 8F 47 E3 07 51 51 
51 C6 EE 97 3A 00 80 56 E8 83 0F 3E 28 2F 2F D7 F9 21 4A 4B 4B D1 5A 06 0E 87 63 6B 6B AB F3 F6 
75 45 7A 7A BA 54 2A 55 4E 37 B9 65 CB 96 CA CA 4A 63 F7 AB 01 5A AD 45 00 30 7A F4 68 B4 7E 9B 
C1 60 78 7A 7A 26 25 25 19 BB 53 4D 13 1B 1B 8B 3A DC AF 5F 3F FD AD B6 88 8B 8B 73 72 72 62 B1 
58 0C 06 E3 EC D9 B3 7A 3A 8A F6 94 95 95 C5 C7 C7 2B BB 24 12 89 52 52 52 8C DD AF FA B4 4E 8B 
00 60 ED DA B5 28 71 2E 8F C7 4B 4D 4D 35 76 8F 34 02 DD 71 11 04 F1 E5 97 5F 1A E0 58 D6 D6 D6 
04 41 B8 BA BA EA FB 58 DA 93 93 93 33 7C F8 70 FA 61 C9 D4 56 73 B5 4E 8B 72 72 72 98 4C 26 97 
CB DD BB 77 AF BF BF BF 9D 9D DD CA 95 2B 4B 4A 4A 8C DD AF A6 89 8B 8B 63 B1 58 19 19 19 06 38 
16 00 98 DA 48 9D 2A 00 70 FF FE FD AF BE FA CA C6 C6 E6 93 4F 3E 41 B7 76 87 0F 1F 36 76 BF 5E 
A3 15 5A 54 59 59 29 16 8B 59 2C 16 3D 85 FA E0 C1 03 F4 67 58 BE 7C B9 89 97 91 03 00 17 17 97 
B8 B8 38 7D 77 12 00 F6 EE DD 6B 61 61 61 B2 DF 06 00 DC BB 77 6F CC 98 31 76 76 76 A8 14 74 72 
72 32 BA 1C 8D 1A 35 CA D8 BD 7B 8D D6 66 51 6C 6C 2C 5A BA BC 6D DB B6 7A 2F 3D 7A F4 E8 EB AF 
BF B6 B6 B6 5E BA 74 A9 C9 AE C1 04 00 89 44 C2 E5 72 03 03 03 B3 B2 B2 F4 74 14 34 E9 CC E5 72 
4D 33 DF 08 00 DC B9 73 87 F6 87 BE 89 00 00 54 C2 8C CF E7 9B D4 90 5D AB B2 08 00 D0 64 A5 9A 
A9 C9 A7 4F 9F 4E 9E 3C 59 2E 97 7F FB ED B7 2F 5F BE 34 4D 97 0E 1D 3A 44 92 A4 8B 8B 8B 3E BA 
87 06 D3 19 0C C6 AA 55 AB 74 DE B8 96 00 C0 ED DB B7 FD FC FC EC EC EC D6 AC 59 53 6F 35 3E 00 
CC 99 33 07 0D B7 9A 54 A1 80 56 65 D1 F9 F3 E7 09 82 98 36 6D 5A 93 7B 66 64 64 CC 98 31 43 26 
93 A1 C4 71 A6 E6 12 00 74 EC D8 D1 CE CE 6E EE DC B9 D9 D9 D9 BA EA 1E FC 5B 77 59 20 10 98 54 
C4 20 45 51 00 90 98 98 E8 E7 E7 67 6F 6F BF 66 CD 9A 57 AF 5E 35 B8 5B 52 52 12 0A E6 98 31 63 
86 81 7B A8 86 D6 63 D1 93 27 4F 04 02 81 4C 26 D3 3C 6C 24 33 33 33 20 20 40 26 93 CD 99 33 C7 
04 CB 9B 26 27 27 A3 BB BB 09 13 26 24 26 26 B6 78 D5 10 7A E3 BD 7B F7 C4 62 31 8F C7 9B 33 67 
8E 49 15 80 40 69 95 86 0C 19 E2 E6 E6 16 1E 1E AE 7E 46 08 00 DA B7 6F 4F 10 04 9B CD DE BE 7D 
7B 55 55 95 C1 FA A9 86 56 62 51 49 49 09 0A 6A 6E C1 AC 5C 4E 4E CE BC 79 F3 64 32 D9 AC 59 B3 
32 32 32 4C CD A5 9C 9C 9C B9 73 E7 F2 F9 7C 7B 7B 7B F4 B0 A4 66 41 9E EA 4B 69 69 69 43 87 0E 
F5 F0 F0 78 EB AD B7 4C 2D E3 0A 00 5C BA 74 69 C8 90 21 EE EE EE E1 E1 E1 9A 28 01 00 8B 17 2F 
A6 27 A6 45 22 D1 4F 3F FD 64 F4 34 4C AD C1 A2 DA DA DA A1 43 87 6A 99 9B F3 C5 8B 17 8B 16 2D 
92 CB E5 D3 A6 4D 7B FA F4 A9 A9 B9 44 FD AB 93 83 83 03 5A 9C 83 A2 78 EC EC EC 82 83 83 63 62 
62 CA CB CB D1 98 81 AD AD 2D 0A 4D 20 49 D2 DD DD BD 53 A7 4E A6 26 0F F5 AF 3F 9F 7E FA 69 9B 
36 6D 76 EC D8 D1 AC 48 B9 9B 37 6F 22 85 E8 42 9A 42 A1 70 FD FA F5 46 9C 44 32 7B 8B 00 40 2E 
97 BB B9 B9 65 66 66 6A DF 5A 7E 7E FE 92 25 4B E4 72 F9 C4 89 13 1F 3F 7E 6C 82 2E 51 14 55 52 
52 12 19 19 E9 EB EB 6B 67 67 47 AF 92 70 77 77 A7 C3 B7 B9 5C EE D0 A1 43 A3 A2 A2 4C 70 8A 0C 
00 CE 9F 3F FF FE FB EF 77 EE DC 39 22 22 A2 05 91 A6 0A 85 02 59 D4 A9 53 A7 EB D7 AF FB F8 F8 
A0 8C 0E 42 A1 30 34 34 B4 A8 A8 C8 F0 7F 35 B3 B7 08 65 6C 7A F0 E0 81 0E DB 2C 2C 2C 5C B6 6C 
99 8D 8D 4D EB CB B3 61 44 90 3F 5E 5E 5E 5D BA 74 89 88 88 68 F1 AA 07 34 19 40 10 04 93 C9 44 
25 A1 92 92 92 E8 D5 7E 56 56 56 4B 97 2E CD CB CB 33 E4 5F CD BC 2D AA AA AA 12 0A 85 BF FC F2 
8B 3E BE B2 92 92 92 D0 D0 50 5B 5B DB D1 A3 47 27 27 27 63 97 5A 8C 42 A1 38 7E FC F8 7B EF BD 
D7 AD 5B B7 88 88 08 ED 57 E0 25 24 24 A0 5B D6 35 6B D6 D0 1B 53 52 52 E8 C8 49 1E 8F 87 86 37 
B5 3C 90 86 98 B1 45 00 80 EA 7F 58 5B 5B 4F 9E 3C B9 B1 87 19 D5 47 F0 66 51 56 56 B6 7A F5 6A 
7B 7B FB 91 23 47 DE BE 7D 1B BB D4 2C EA EA EA 8E 1F 3F DE BD 7B F7 77 DE 79 47 87 99 E8 14 0A 
05 9A 7E ED DD BB 77 BD 97 1E 3F 7E 3C 7E FC 78 B4 3A 4B 2C 16 1B E6 EF 65 DE 16 A1 1F A4 D2 D2 
D2 D5 AB 57 DB D8 D8 8C 1D 3B F6 D1 A3 47 CA 5F 5C 49 49 49 50 50 90 83 83 83 A3 A3 63 58 58 58 
8B EF 22 CA CB CB C3 C2 C2 9C 9D 9D 7D 7C 7C AE 5F BF 8E 5D 6A 12 94 93 B9 53 A7 4E BD 7A F5 3A 
79 F2 A4 6E BF 31 00 98 31 63 06 41 10 32 99 AC C1 81 93 B4 B4 B4 69 D3 A6 A1 35 B3 3A 3C 6E 63 
B4 06 8B D0 7F EB B9 54 53 53 F3 F3 CF 3F A3 E2 5C 12 89 64 E4 C8 91 0C 06 E3 C3 0F 3F 7C F4 E8 
51 8B 8F 58 5D 5D BD 7D FB 76 67 67 E7 FE FD FB 5F BD 7A 15 BB D4 20 C8 9F 8E 1D 3B F6 E9 D3 47 
7F D9 94 E2 E3 E3 51 C2 93 ED DB B7 37 B8 43 BD D3 43 AF B4 1E 8B 10 05 05 05 4B 97 2E 15 89 44 
32 99 0C A5 F2 A0 03 D2 AE 5F BF DE BB 77 6F 1E 8F B7 7A F5 6A 6D 16 21 57 55 55 6D D9 B2 C5 D5 
D5 75 D0 A0 41 7F FD F5 17 76 89 A6 BA BA 7A DF BE 7D 1E 1E 1E 7A F5 07 41 27 E2 1B 3C 78 70 83 
3B 60 8B 34 42 F5 6B 02 80 E4 E4 E4 C1 83 07 23 7F BE FB EE BB C2 C2 C2 7A 6F F9 F5 D7 5F DD DC 
DC 7A F5 EA F5 E0 C1 03 6D 04 A8 AE AE DE B1 63 47 9B 36 6D FA F5 EB 17 1F 1F FF 86 BB 54 55 55 
B5 6F DF BE F6 ED DB F7 E9 D3 27 36 36 D6 00 47 04 00 94 42 C3 D2 D2 B2 C1 99 22 6C 91 46 28 7F 
4D 00 F0 EC D9 B3 B1 63 C7 32 99 4C 17 17 97 F0 F0 70 35 F3 D9 65 65 65 63 C7 8E D5 C9 4D B3 42 
A1 F8 F5 D7 5F D1 DD 8B 99 E6 52 D3 92 AA AA AA 6D DB B6 A1 BB 5C 43 66 23 03 00 3F 3F 3F 74 02 
34 B8 DC 08 5B A4 11 F4 D7 54 59 59 B9 6C D9 32 3E 9F DF A1 43 07 F5 69 2E 00 20 29 29 69 D4 A8 
51 68 99 A7 AE BE 62 E4 52 A7 4E 9D 7A F7 EE 7D E2 C4 09 F3 CA A5 D6 32 00 A0 BC BC 7C C3 86 0D 
8E 8E 8E C3 86 0D FB FB EF BF 0D DF 87 93 27 4F 36 B6 DC 08 00 6E DC B8 81 2D 6A 1A 3A D1 87 48 
24 92 4A A5 F1 F1 F1 6A 4E 5F 00 B8 78 F1 E2 A0 41 83 9C 9C 9C D6 AF 5F 5F 52 52 A2 F3 AF 58 A1 
50 9C 38 71 C2 D3 D3 F3 DD 77 DF 6D DD 35 26 D0 40 0E 1A FD BF 73 E7 8E B1 BA 51 5D 5D 4D 4F BF 
D2 3F 9D 00 10 1F 1F 3F 70 E0 40 57 57 57 6C 51 D3 D0 16 49 A5 52 35 15 79 15 0A C5 B1 63 C7 7A 
F6 EC D9 A1 43 87 5D BB 76 A1 90 47 14 45 A2 8F AF 18 00 4E 9C 38 D1 A3 47 8F 6E DD BA ED DF BF 
DF 5C F2 12 6A 02 00 94 96 96 6E DA B4 C9 C1 C1 C1 C7 C7 27 31 31 D1 D8 3D A2 CE 9D 3B 47 2F 37 
42 B1 79 FD FA F5 6B DB B6 6D 78 78 F8 AB 57 AF B0 45 4D 83 56 9B 91 24 D9 D8 D3 88 42 A1 88 8A 
8A EA DC B9 73 8F 1E 3D 7E FB ED 37 FA E2 50 56 56 B6 74 E9 52 94 58 EB E1 C3 87 7A 7A 98 89 89 
89 F1 F6 F6 EE D2 A5 4B 2B A8 1D 06 00 25 25 25 AB 56 AD B2 B6 B6 1E 39 72 A4 6E E3 AD B4 A1 BA 
BA 1A AD CB 1C 3C 78 30 1D 5B 84 BE 6D FC 5C A4 11 B4 45 0D BE 7A F5 EA 55 6F 6F 6F 6F 6F EF 0B 
17 2E D0 1B 15 0A 45 44 44 84 B3 B3 B3 BF BF FF FD FB F7 97 2F 5F 6E 6B 6B 3B 6A D4 28 FD 15 D2 
89 89 89 E9 D9 B3 67 E7 CE 9D F7 EF DF 5F 53 53 A3 8F 43 E8 15 00 C8 CB CB 0B 0E 0E B6 B6 B6 9E 
38 71 E2 93 27 4F 8C DD A3 D7 00 80 51 A3 46 A1 DC 7A C7 8E 1D AB B7 48 04 5B D4 34 E8 6B 6A 70 
71 F8 A3 47 8F E4 72 79 64 64 24 FD B5 02 C0 95 2B 57 BC BC BC 3C 3D 3D 2F 5D BA 44 EF A9 1C 94 
90 90 90 A0 27 97 2E 5F BE FC E9 A7 9F B6 6D DB 76 FB F6 ED E6 E2 12 00 BC 78 F1 62 E1 C2 85 68 
B5 48 5A 5A 9A B1 7B D4 30 51 51 51 74 7C B7 F2 76 6C 91 46 00 80 BB BB 7B 83 DB C7 8D 1B 17 1A 
1A 4A FF 37 23 23 63 D4 A8 51 76 76 76 BB 76 ED 6A F0 A1 BF BA BA 7A FF FE FD 68 BA 50 7F 03 D6 
97 2F 5F F6 F1 F1 71 77 77 0F 0B 0B 33 CD 1C 9F 08 E4 4F 48 48 88 B5 B5 F5 D8 B1 63 4D ED FA 53 
8F CA CA 4A 14 CA 1D 18 18 A8 BC 1D 5B A4 11 00 D0 E0 77 F4 E4 C9 13 1B 1B 9B 92 92 12 00 88 8D 
8D 75 74 74 44 F9 15 9A 2C 80 55 53 53 B3 7F FF 7E 7D 0F 58 FF F5 D7 5F 3E 3E 3E 6E 6E 6E 61 61 
61 8D 65 17 30 16 00 90 9B 9B BB 68 D1 22 89 44 32 75 EA 54 9D 2C D9 D2 37 00 80 32 31 C8 E5 F2 
7A DB B1 45 4D D3 A0 45 28 4E 31 38 38 98 A2 A8 D8 D8 58 2B 2B AB 7D FB F6 35 AB EE 15 1A B0 A6 
07 D9 D4 0C 0C 68 13 2D 9E 90 90 E0 E3 E3 E3 EA EA 1A 16 16 66 F4 05 CF 14 45 01 40 7A 7A 7A 40 
40 80 B5 B5 B5 5E 93 78 E9 1C 00 F0 F2 F2 42 69 99 95 2B 6B 60 8B 34 A2 31 8B F8 7C FE 8B 17 2F 
00 C0 D9 D9 B9 59 D5 7E EA 11 13 13 D3 AB 57 AF 76 ED DA A9 3E CC 00 C0 B1 63 C7 6C 6C 6C 1C 1C 
1C 42 42 42 D4 8C B3 AB 87 CE 1A B5 7A F5 EA F2 F2 72 A3 84 3E A0 DC 0C B4 3F A6 B6 B6 5C 13 F6 
EE DD AB BA DC 08 5B A4 11 8D 59 44 C7 04 35 F8 D4 D4 5C 94 1F 66 2A 2A 2A 00 20 31 31 B1 73 E7 
CE 6C 36 DB CA CA CA C9 C9 89 C3 E1 38 3B 3B 1F 38 70 A0 C5 77 80 77 EF DE 1D 33 66 8C BD BD FD 
B2 65 CB 50 A9 56 ED BB AD 09 00 90 9A 9A 8A FC 59 BC 78 71 41 41 81 61 8E AB 73 8A 8B 8B D1 72 
23 2F 2F 2F 7A 23 B6 48 23 9A B4 48 87 DF 60 42 42 C2 90 21 43 EC ED ED 3B 75 EA C4 66 B3 DD DD 
DD 2F 5E BC 88 5E 7A F6 EC 59 40 40 00 9F CF F7 F6 F6 BE 72 E5 4A 8B 1D 48 4E 4E 46 D9 40 97 2D 
5B A6 EF E4 01 00 F0 E4 C9 93 29 53 A6 C8 64 B2 C5 8B 17 D7 8B D9 35 47 0E 1F 3E 4C 10 04 97 CB 
A5 D7 B7 EA 6F 62 5D 15 6C 91 46 07 2A 2E 2E 9E 38 71 22 BA FE 1C 3A 74 48 75 9F 97 2F 5F 06 07 
07 4B A5 52 3F 3F BF 9D 3B 77 B6 F8 BA 84 4E 6E 5B 5B DB 65 CB 96 15 14 14 E8 DC 25 50 49 7E AD 
DB F6 8D 45 79 79 39 41 10 2C 16 6B FB F6 ED 28 B4 7F D2 A4 49 EA B3 E4 EA 10 6C 51 13 D4 D4 D4 
84 86 86 72 B9 5C 1E 8F B7 6A D5 2A 35 83 0D 15 15 15 6B D6 AC 61 32 99 24 49 6A 99 45 FA E9 D3 
A7 53 A6 4C 91 4A A5 8B 16 2D D2 55 4A 71 00 40 B7 8E C8 9F 26 47 2C CD 0B 3A 1C CC D3 D3 D3 CA 
CA 0A 5D 85 24 12 49 42 42 82 01 8E 8E 2D 52 C7 89 13 27 E4 72 B9 85 85 C5 84 09 13 1A 3B ED 00 
A0 AC AC 6C D3 A6 4D 68 EA F6 DA B5 6B BA BA 06 D2 0F FD 01 01 01 DA E4 19 06 B5 C9 AF 5B 07 95 
95 95 28 6F 09 ED CF C1 83 07 0D 16 78 85 2D 52 D7 3E 83 C1 60 30 18 B7 6E DD 6A 2C 2F 4A 51 51 
11 0A 23 FA F2 CB 2F EF DE BD AB 93 E3 D6 23 23 23 83 76 09 25 46 D5 FC BD A0 59 F2 6B B3 A6 B2 
B2 72 F3 E6 CD 2E 2E 2E C8 A2 36 6D DA 9C 3E 7D DA C0 A3 9D D8 22 75 ED 13 04 81 A6 20 A7 4C 99 
A2 7C 06 A3 E8 B2 90 90 10 B9 5C 5E 2F 3A 53 A1 50 E8 E3 89 56 79 32 F4 F9 F3 E7 4D 9E 25 D0 9C 
E4 D7 66 4A 45 45 45 58 58 98 F2 25 48 28 14 1A 65 A4 11 5B D4 74 FB D9 D9 D9 81 81 81 72 B9 FC 
9B 6F BE C9 CD CD CD C9 C9 59 B0 60 81 5C 2E 9F 3A 75 EA D3 A7 4F EB BD A5 57 AF 5E 02 81 40 CB 
E5 E8 8D 81 D2 20 4B A5 D2 A9 53 A7 3E 7B F6 AC B1 2B 64 73 93 5F 9B 17 00 50 59 59 B9 6D DB 36 
14 B2 80 E6 5B 7D 7C 7C 8C 18 69 61 DE 16 A9 CE 08 D5 B3 A8 C5 B1 05 94 8A 87 D9 D9 D9 01 01 01 
72 B9 5C 20 10 04 06 06 D6 8B 87 00 80 A7 4F 9F CE 98 31 83 C7 E3 C9 64 32 47 47 47 1F 1F 9F 1B 
37 6E E8 C3 A5 BC BC 3C 94 BA B5 5E E6 30 D0 22 F9 B5 59 80 16 38 CD 9C 39 93 2E 96 CC 60 30 86 
0F 1F 6E F4 48 8B D6 6C 11 BD 12 56 39 30 A4 59 ED 93 24 59 2F D5 75 66 66 66 BD 4B 1C 1A FB 1A 
3D 7A 34 9B CD 46 81 0E 95 95 95 74 A8 78 FF FE FD B5 99 44 52 43 7E 7E 3E ED D2 3F FF FC 13 1B 
1B 8B 96 60 1C 3C 78 B0 35 2D 0D 44 A0 05 4E CA FE 30 99 CC C0 C0 40 13 29 21 63 AE 16 01 C0 B9 
73 E7 04 02 81 EA 76 65 8B 50 91 77 89 44 72 F7 EE DD E6 9E CA 00 C0 66 B3 C5 62 F1 9E 3D 7B E8 
F3 52 F9 02 85 9E 3D 50 B6 F5 77 DF 7D F7 F0 E1 C3 F5 4E 5F 03 84 8A 17 16 16 86 84 84 38 38 38 
48 24 92 56 B9 4C 1D 00 4E 9D 3A C5 E1 70 E8 6A 2B 4C 26 73 F8 F0 E1 DA E4 15 D4 39 66 69 11 00 
5C B8 70 C1 C2 C2 A2 C9 3B 3A BA F8 0F 72 09 5D 16 34 3F 9B 5F BE 7C B9 6C D9 32 B1 58 EC E9 E9 
89 D2 65 D1 37 8A E8 D9 83 24 49 94 7B 4D 4D 9B 74 6E 93 EE DD BB EB E9 44 D7 F9 C0 A0 29 80 26 
BB 57 AD 5A 85 4A 42 20 7F 4C 33 52 C9 CC 2C AA AC AC 44 23 CB 72 B9 BC C1 69 E9 C6 46 17 E2 E3 
E3 85 42 21 2A 4C 62 6F 6F DF AC CB 42 41 41 41 48 48 88 54 2A F5 F7 F7 47 65 AE BB 75 EB C6 64 
32 87 0D 1B 76 F5 EA 55 0D 1B 41 A1 E2 5E 5E 5E 5D BB 76 D5 F9 1A F2 56 66 11 3D 04 AA 3C 7E E0 
E5 E5 D5 B2 3B 73 03 60 36 16 01 C0 E9 D3 A7 DB B7 6F 4F 92 64 AF 5E BD DA B6 6D 9B 9B 9B AB BA 
5B 7E 7E 3E 8F C7 A3 1A 39 B1 E8 4B 93 40 20 88 8C 8C AC AD AD D5 5C A7 92 92 92 90 90 10 2B 2B 
2B 0B 0B 8B F1 E3 C7 DF BF 7F BF 65 1F 44 39 54 5C 35 C4 01 94 D0 BC CD 56 63 11 00 BC 78 F1 42 
2C 16 D3 F7 6F 0C 06 E3 EB AF BF 36 F1 48 25 F3 B0 28 2D 2D CD D7 D7 97 24 C9 F6 ED DB AB 29 EB 
0B 00 1B 36 6C 18 33 66 0C A5 F6 C4 2A 2D 2D 95 CB E5 24 49 D2 F5 39 0C BF 24 E1 C2 85 0B 68 30 
6D DB B6 6D 68 32 07 00 52 52 52 26 4F 9E CC E3 F1 F8 7C 7E B3 3A D6 0A 2C 02 80 DC DC DC B1 63 
C7 2A 8F BF 99 BE 3F 08 33 B0 08 00 1C 1D 1D 49 92 5C B0 60 81 9A F8 B4 BA BA BA CD 9B 37 DB DA 
DA A2 0C 4F 15 15 15 F5 16 3F D6 A3 BC BC 1C B9 44 92 A4 40 20 88 8B 8B 33 BC 4B 09 09 09 9F 7F 
FE B9 A3 A3 E3 F2 E5 CB 07 0D 1A 24 93 C9 16 2D 5A 74 FB F6 ED D0 D0 50 47 47 47 CD 5D 32 6B 8B 
00 20 27 27 C7 DF DF 1F F9 43 92 24 8B C5 32 AF 48 3F F3 B0 E8 C0 81 03 A8 F8 71 83 3B 54 55 55 
ED DC B9 B3 63 C7 8E 1F 7C F0 C1 E3 C7 8F D1 5B 24 12 49 9B 36 6D D4 B7 5C 5E 5E 7E EA D4 A9 75 
EB D6 09 04 02 3E 9F BF 74 E9 D2 97 2F 5F 1A CC 25 34 7B B8 7B F7 6E 67 67 67 0F 0F 8F AD 5B B7 
96 97 97 D3 AF 56 57 57 1F 38 70 A0 47 8F 1E 9A B8 64 A6 16 01 C0 A1 43 87 50 AD 21 65 7F 4C B0 
90 A6 7A 4C DA A2 E2 E2 E2 C8 C8 C8 A1 43 87 72 B9 5C 92 24 EB 0D 27 A0 39 84 75 EB D6 39 39 39 
0D 1E 3C 98 5E F0 03 00 7B F7 EE E5 F1 78 9A FF 31 E2 E2 E2 E8 B1 07 A9 54 7A F3 E6 4D BD 86 9C 
A1 BB FF EF BF FF DE DE DE 7E C0 80 01 67 CE 9C 69 6C E0 0E 00 8E 1F 3F CE E3 F1 D4 67 15 37 3B 
8B 00 20 2D 2D 6D F6 EC D9 68 FC 8D C3 E1 98 75 A4 AC E9 5A 84 6E E4 6C 6C 6C A4 52 29 9F CF 57 
2E 94 8D CE C2 E0 E0 60 1B 1B 9B 51 A3 46 DD BE 7D 9B DE AE 50 28 C4 62 31 93 C9 A4 73 00 69 4E 
6D 6D ED EE DD BB 91 4E 52 A9 34 25 25 45 9B D0 87 C6 48 49 49 71 71 71 79 EB AD B7 A6 4C 99 72 
EF DE 3D 35 7B 96 97 97 AF 5C B9 D2 C6 C6 66 EA D4 A9 EA 17 9C 99 91 45 00 90 9A 9A 2A 14 0A E9 
EB 0F 83 C1 98 3A 75 AA 59 47 CA 9A B4 45 E8 37 B8 4B 97 2E 17 2E 5C 40 67 33 0A B4 99 35 6B 96 
4C 26 9B 31 63 46 6A 6A 2A BD 7F 71 71 71 50 50 50 D7 AE 5D 5D 5C 5C B4 29 9E 53 57 57 17 11 11 
81 5C 22 08 C2 D9 D9 59 87 22 A1 01 A8 26 97 8E 55 57 57 6F DD BA D5 C9 C9 E9 7F FF FB 1F CA DE 
DA 0A 2C 02 80 9B 37 6F D2 F7 6F 4C 26 53 28 14 FE F0 C3 0F 66 ED 0F C2 A4 2D 42 A7 CE 8A 15 2B 
9C 9D 9D FB F6 ED BB 77 EF DE AF BE FA CA DA DA 3A 28 28 48 79 98 BB AA AA 2A 2C 2C CC CE CE 6E 
D2 A4 49 BA 0A 49 44 53 A5 DD BA 75 43 63 0F 28 EF A6 96 3A 55 54 54 34 A9 90 42 A1 F8 E5 97 5F 
3C 3C 3C 06 0E 1C 78 EB D6 2D B4 D1 DC 2D 02 80 AB 57 AF 76 E9 D2 05 FD 30 B1 58 2C 3B 3B BB D6 
14 69 6E 06 16 51 14 55 5B 5B 7B F8 F0 61 92 24 D7 AE 5D AB FC B4 83 CE B9 76 ED DA 0D 19 32 24 
39 39 59 1F 7D 38 76 EC 18 5D 05 5E CB A1 BC 73 E7 CE D9 DA DA AA 39 D6 B9 73 E7 BA 77 EF EE ED 
ED AD 5C 48 0B 00 B2 B2 B2 08 82 E0 F1 78 CA C3 0F F5 DE 6B 9A 16 01 40 74 74 B4 F2 F8 81 85 85 
45 EB 8B 34 37 69 8B 94 93 D9 D7 3B 51 00 E0 CA 95 2B BD 7B F7 EE D1 A3 47 5C 5C 9C BE 3B 73 FA 
F4 E9 7A 2E 35 B7 05 00 10 0A 85 8D BD 31 2F 2F EF CB 2F BF EC D0 A1 C3 91 23 47 94 63 B4 B3 B3 
B3 E7 CC 99 C3 E3 F1 C4 62 F1 C8 91 23 1D 1C 1C 36 6C D8 A0 9A 73 CB 04 2D 2A 2D 2D 8D 8E 8E 46 
F7 E4 68 FC A0 7D FB F6 FB F6 ED 33 97 04 CB CD C2 08 16 69 3E 93 E8 EE EE 4E 92 24 1A E7 A5 57 
BF 01 C0 FD FB F7 FD FC FC DC DC DC 22 22 22 0C 39 C9 73 FE FC F9 0F 3F FC 10 AD 06 DB B4 69 53 
B3 D2 D0 A9 39 D1 73 73 73 9D 9D 9D E7 CF 9F 4F 3F 21 D0 FE F0 F9 7C 17 17 97 55 AB 56 E5 E5 E5 
51 14 95 92 92 42 E7 09 52 CE B9 65 52 16 01 C0 8D 1B 37 E8 F8 03 36 9B 6D 6F 6F FF E3 8F 3F B6 
BE 95 1A 34 06 B5 08 00 CE 9C 39 E3 E2 E2 A2 E1 FE 65 65 65 5B B6 6C E9 DA B5 2B 9F CF 9F 33 67 
0E 49 92 CF 9F 3F 47 29 72 D6 AC 59 63 AC BB 82 53 A7 4E A1 21 26 2B 2B AB EF BF FF 5E C3 EC 22 
8D 9D E8 00 F0 CD 37 DF 04 04 04 D0 5B 68 7F 3E FA E8 A3 DF 7E FB 4D F5 E4 53 75 C9 44 2C 02 80 
84 84 04 DA 1F F4 73 13 11 11 D1 FA 56 6A D4 C3 70 16 01 40 54 54 94 85 85 45 0B FE DE 57 AE 5C 
19 33 66 0C 93 C9 E4 F3 F9 4B 96 2C 31 FA AC 1C 00 38 3B 3B A3 F9 25 34 0A DF E4 2A EE C6 4E F4 
EC EC 6C B9 5C 8E D6 C9 14 17 17 EF DB B7 EF AD B7 DE 9A 38 71 62 52 52 92 FA 3E 28 BB 54 54 54 
64 5C 8B D0 22 91 01 03 06 D0 FE BC FD F6 DB 87 0E 1D 6A 7D 2B 35 1A C4 40 16 A1 85 A2 68 8A CD 
14 7E 35 B5 A7 A6 A6 26 23 23 E3 CA 95 2B CA CF 4B B1 B1 B1 8D B9 D4 A0 45 00 30 77 EE DC 79 F3 
E6 51 14 55 5D 5D 2D 16 8B ED EC EC 9A D5 8D E4 E4 E4 91 23 47 A2 08 A9 96 7D 10 2D 41 EB 7F 64 
32 99 72 FE 1D E5 9A 6B 6F 02 86 B0 88 1E 27 98 38 71 62 AB B1 48 99 C4 C4 44 74 8F C7 60 30 FC 
FC FC 1A CC 19 D4 98 45 7C 3E 3F 27 27 07 7D 45 F6 F6 F6 2D EB 40 6E 6E AE E1 BF 55 14 57 81 4A 
D9 D1 FE 1C 3D 7A D4 F0 E1 88 46 C7 40 16 39 39 39 6D DB B6 CD 90 49 5F 0D 8C 72 0C 11 41 10 03 
07 0E AC 37 26 DE 98 45 CA AB A1 5A 5C 29 C8 C0 CF 45 68 50 BE 77 EF DE E8 C3 32 99 CC F7 DE 7B 
4F 7F 75 9F 4C 1F 43 8F 2E B4 56 8B 68 62 63 63 E9 B8 07 89 44 72 FC F8 71 74 6F D3 A4 45 DA E4 
E6 37 98 45 E8 FE AD DE F8 C1 EF BF FF FE C6 FA 83 C0 16 E9 05 FA D2 44 10 44 E7 CE 9D 23 22 22 
AA AA AA CC DA 22 54 AA BD 9E 3F 47 8F 1E D5 EB 41 CD 05 6C 91 1E 49 4B 4B 43 E9 53 50 2A 22 FD 
65 CF D3 AB 45 0A 85 E2 F7 DF 7F 7F E7 9D 77 68 7F 3E F8 E0 83 F3 E7 CF EB E9 70 E6 08 B6 48 EF 
64 66 66 06 04 04 38 38 38 98 97 45 00 50 57 57 17 19 19 A9 3C 7E 20 95 4A 95 A3 93 30 08 92 A2 
28 C2 50 50 14 C5 60 30 50 50 8F C1 0E 6A 22 50 14 C5 64 32 EB 7D 70 7A 63 83 AF 6A D9 B8 36 E4 
E4 E4 AC 5D BB 76 C7 8E 1D AF 5E BD 22 08 82 24 C9 8F 3F FE 38 24 24 E4 A3 8F 3E D2 D5 21 5A 13 
2C 63 77 00 63 5A D4 D6 D6 1E 3C 78 30 30 30 B0 A4 A4 84 20 08 92 24 FB F7 EF BF 74 E9 D2 3E 7D 
FA 18 BB 6B A6 0B B6 08 43 10 04 41 51 54 6D 6D 6D 64 64 E4 BC 79 F3 68 7F 3E FB EC B3 E0 E0 E0 
5E BD 7A 19 BB 77 A6 0E B6 C8 84 A0 28 8A CE 80 63 48 AA AA AA 9C 9D 9D F3 F3 F3 D1 7F 49 92 FC 
FC F3 CF 83 83 83 BD BD BD 0D DF 19 73 84 61 EC 0E 68 4B BD E7 3C 63 77 A7 E5 50 14 D5 AF 5F 3F 
B4 74 C2 60 07 AD AA AA DA B2 65 8B 8D 8D 0D 52 88 C1 60 F8 FA FA DE B8 71 E3 E4 C9 93 58 A1 66 
60 B8 81 0C 5D 8F D1 D5 D6 D6 86 86 86 A2 E2 D2 04 41 70 B9 DC B9 73 E7 9A 6C FA 25 85 42 D1 64 
6E 7E 74 21 B2 B4 B4 6C 6E 1D AB E6 8E D1 01 40 45 45 45 78 78 38 3D FE C6 60 30 86 0D 1B 86 92 
90 61 9A 8B B9 5A 04 00 B3 66 CD 42 AD 29 F3 FE FB EF 6B 59 53 55 E7 D0 39 55 5C 5D 5D 55 5F 52 
1E E9 5E B9 72 A5 40 20 40 2E 71 38 9C 23 47 8E 68 B8 A6 40 73 8B 00 20 36 36 96 96 87 20 08 26 
93 E9 E7 E7 77 E7 CE 9D 66 7E 2C CC 7F 18 DA 22 89 44 A2 93 B2 CF 00 D0 A6 4D 9B D1 A3 47 D3 4B 
E5 2A 2A 2A 16 2D 5A 44 92 E4 AA 55 AB B4 6F 5F 57 94 94 94 48 A5 52 A4 90 EA 42 57 D5 F9 A2 DA 
DA DA E8 E8 E8 8F 3E FA 08 B9 64 61 61 11 15 15 D5 64 26 64 4D 2C 42 FE 4C 9A 34 89 BE 7A 33 99 
4C 7F 7F 7F F5 79 88 30 9A 60 BA 2B C6 D5 03 00 6C 36 BB 5E AE 92 BC BC 3C 82 20 54 CB B1 18 85 
EA EA EA 2D 5B B6 D8 D9 D9 B9 B8 B8 34 96 5F 52 CD AC 6B 62 62 22 BD E6 1A 86 8B AC 00 00 09 E2 
49 44 41 54 82 C1 60 2C 5C B8 B0 BA BA BA 59 CB 2E 94 5F 2D 29 29 59 B1 62 05 ED 0F 8B C5 1A 3D 
7A 74 4A 4A 8A 16 9F 0F F3 1F 66 6C 91 EA A9 69 22 16 29 14 8A E8 E8 68 0F 0F 8F 7A 69 F4 54 49 
4E 4E 16 0A 85 14 45 C5 C6 C6 B2 D9 6C D5 1D 5E BE 7C 29 93 C9 D0 CD 2A 83 C1 98 33 67 CE AB 57 
AF 34 5C 76 81 B6 17 16 16 4A A5 52 FA FE 8D C5 62 A1 AA 61 DA 7D 44 CC 6B 98 AB 45 AA 00 C0 DA 
B5 6B D1 D3 85 11 FB 10 1F 1F FF FE FB EF 37 E9 0F 00 24 26 26 B6 6B D7 6E CF 9E 3D 68 E5 AC 9A 
D4 A7 E8 36 8F 0E 6F B5 B4 B4 3C 7B F6 AC FA 65 17 00 90 9F 9F AF EC 0F 9B CD 1E 3F 7E BC 49 15 
CF 6A 35 B4 1E 8B 4A 4B 4B 1D 1C 1C 3A 74 E8 60 94 D1 05 00 48 4E 4E FE E2 8B 2F 34 F1 27 35 35 
75 FA F4 E9 B6 B6 B6 87 0F 1F A6 FE 5D C5 D8 64 56 71 4A 69 39 20 49 92 B3 66 CD A2 13 98 28 5B 
A4 9C 39 08 F9 63 61 61 31 69 D2 24 E5 0C 98 18 DD D2 4A 2C 02 80 A0 A0 20 92 24 B5 C9 8A DA E2 
43 A3 9C 2A 7C 3E 7F EA D4 A9 CA 95 7A 01 20 2D 2D 0D A5 EF 41 FF BD 77 EF DE 98 31 63 A4 52 69 
60 60 20 BD 67 6C 6C 2C 49 92 1A 9E E5 A8 04 13 4A 5C 4E 92 E4 88 11 23 72 72 72 50 82 24 94 1D 
49 B9 F8 0F 87 C3 99 3A 75 6A 5A 5A 9A AE 3F 34 E6 35 5A 89 45 37 6F DE B4 B4 B4 1C 30 60 80 81 
8F 0B 00 76 76 76 22 91 68 F8 F0 E1 CA 43 1D 75 75 75 A7 4F 9F 1E 32 64 08 2A F9 1A 1E 1E 7E E6 
CC 19 5F 5F 5F 7B 7B FB D5 AB 57 D3 D9 57 00 E0 E6 CD 9B 52 A9 54 F3 BC 48 34 71 71 71 A8 D2 26 
BA C7 23 08 42 22 91 20 79 04 02 01 CA C0 9C 91 91 A1 B3 8F 8A 69 9C D6 60 51 7A 7A BA 83 83 83 
A3 A3 A3 E1 2B B6 A3 5B A9 CD 9B 37 7B 7A 7A BA BB BB 7F F7 DD 77 49 49 49 6B D7 AE 6D D7 AE 5D 
8F 1E 3D F6 EC D9 43 92 E4 91 23 47 2C 2D 2D 6D 6D 6D B7 6C D9 A2 9C 93 1A 00 DC DC DC 48 92 D4 
E4 5E AE 31 E2 E2 E2 AC AC AC E8 95 EA 7C 3E 5F 26 93 CD 9E 3D FB F9 F3 E7 BA F8 7C 18 8D 30 7B 
8B 4A 4A 4A BA 76 ED CA E5 72 AF 5F BF 6E F8 A3 2B 3F 90 24 25 25 CD 9E 3D 1B 05 41 A3 CE C0 BF 
A5 94 49 92 54 9E 3F 45 43 0B 13 26 4C E8 D4 A9 93 AE 7A 12 17 17 67 6B 6B 3B 67 CE 1C C3 FF 94 
60 CC DB A2 DA DA 5A 54 E8 7B CF 9E 3D 46 E9 00 1A 70 47 79 15 A9 7F B5 A1 93 48 A1 C7 15 3A AB 
2B 45 51 75 75 75 C7 8F 1F EF D7 AF 9F 8D 8D CD E2 C5 8B F1 19 DF 3A 30 63 8B 00 60 FA F4 E9 24 
49 2E 58 B0 C0 B8 DD E8 D4 A9 D3 FC F9 F3 5F BE 7C A9 9C 06 19 0D 94 91 24 89 EE B8 5E BE 7C B9 
62 C5 0A 17 17 97 76 ED DA 6D DD BA D5 4C CB 5D 61 1A C4 5C 2D 02 80 0D 1B 36 10 04 31 78 F0 60 
DD 26 B0 85 C6 69 EC 2D 59 59 59 33 66 CC 90 CB E5 4B 97 2E 25 49 32 3B 3B 7B EE DC B9 02 81 60 
C4 88 11 97 2E 5D 0A 09 09 E1 72 B9 F6 F6 F6 DE DE DE BF FD F6 5B AB 4F B7 FB 06 62 AE 16 1D 3D 
7A 94 C1 60 74 EC D8 B1 B0 B0 50 F3 D3 BD 49 D0 D4 4D 83 C1 EF 4D 8E 01 A4 A5 A5 8D 1B 37 8E CD 
66 7B 78 78 4C 9F 3E 1D 55 98 45 BC 7A F5 AA 15 D4 BA C2 34 86 41 F3 2E E8 0A 8A A2 DC DC DC 9E 
3F 7F DE E0 AB EE EE EE A9 A9 A9 2D 6E 59 26 93 15 17 17 2B 6F 21 08 82 CB E5 26 26 26 76 EC D8 
B1 C9 16 4A 4A 4A 44 22 51 CB 8E 8E 31 53 CC 72 95 1E 49 92 7F FE F9 67 42 42 42 83 F7 5D 2D 56 
08 B5 AC 7C 71 53 28 14 21 21 21 24 49 FE F0 C3 0F 9A 28 44 10 04 56 E8 0D C4 2C AF 45 06 E3 D6 
AD 5B BD 7A F5 EA D1 A3 C7 A5 4B 97 98 4C A6 B1 BB 83 31 51 B0 45 8D 52 51 51 E1 E9 E9 99 99 99 
99 98 98 E8 E1 E1 61 EC EE 60 4C 17 9C BD A4 61 28 8A FA E6 9B 6F 1E 3D 7A B4 71 E3 46 AC 10 46 
3D F8 5A D4 30 67 CE 9C 19 32 64 08 45 51 12 89 E4 C8 91 23 1F 7E F8 21 2A BE 84 C1 A8 82 2D 6A 
00 8A A2 DA B6 6D 9B 9E 9E 4E 6F 99 38 71 E2 F6 ED DB B1 48 98 06 C1 A7 45 03 90 24 F9 F4 E9 53 
34 4C F7 F0 E1 C3 CF 3E FB 6C F7 EE DD 2B 57 AE 34 76 BF 30 26 0A BE 16 35 4D 71 71 71 87 0E 1D 
DE 79 E7 9D 3F FE F8 C3 D8 7D C1 98 22 F8 5A D4 34 22 91 C8 DF DF 5F 9B 69 28 4C EB 06 5B D4 34 
24 49 76 EF DE 3D 3B 3B DB D8 1D C1 98 28 D8 A2 D7 40 61 51 AA 1B E3 E2 E2 9C 9C 9C 8C D2 25 8C 
E9 83 2D FA 0F 8A A2 9C 9C 9C 64 32 59 75 75 B5 F2 F6 FC FC FC 53 A7 4E E1 59 23 4C 63 60 8B 5E 
A3 7F FF FE C5 C5 C5 C1 C1 C1 05 05 05 14 45 55 54 54 44 47 47 F7 EF DF BF A8 A8 68 E4 C8 91 C6 
EE 1D C6 44 C1 63 74 AF 91 95 95 35 60 C0 80 07 0F 1E 28 7F 2D 2C 16 2B 2C 2C 6C E6 CC 99 46 EC 
18 C6 94 C1 16 D5 A7 B2 B2 72 DD BA 75 EB D6 AD AB A8 A8 20 08 42 22 91 24 24 24 74 E8 D0 C1 D8 
FD C2 98 2E D8 A2 37 1A F4 D7 57 2D 3D 46 FD 5B 8F AC C1 D3 A3 C9 97 54 5F 55 3E 84 EA 1B 1B AC 
7D 46 35 52 13 4D 4D CB 9A BC 5D 1F E0 E7 A2 37 17 8A A2 DA B4 69 23 95 4A 95 57 25 12 04 51 58 
58 68 6B 6B 8B 32 43 48 A5 52 06 83 C1 54 42 26 93 11 FF 06 49 A1 2D F4 0E ED DA B5 A3 5B 76 72 
72 A2 B7 4B 24 92 DC DC 5C FA A5 7A 6D D2 EF 52 26 31 31 D1 DD DD 5D 75 7B 71 71 B1 44 22 51 6E 
39 2B 2B 4B 75 B7 B4 B4 B4 06 DF AE 2F F4 BA 92 16 63 E2 9C 3E 7D 9A 24 C9 9D 3B 77 2A 6F FC E9 
A7 9F BC BC BC 28 95 7A 53 00 80 6A DB 28 97 90 69 30 D1 FE C1 83 07 49 92 1C 30 60 C0 FD FB F7 
83 82 82 04 02 C1 DC B9 73 E9 FD 09 82 F8 E0 83 0F D4 F4 EA DE BD 7B CE CE CE 0D E6 EF DF B7 6F 
1F 41 10 C3 87 0F CF C9 C9 89 8B 8B 13 08 04 AA 2B F9 01 00 65 86 D2 E4 1B D0 09 D8 A2 37 9A 9A 
9A 1A 7B 7B FB BE 7D FB D2 5B 00 C0 D3 D3 73 E3 C6 8D 54 43 55 DB D0 25 05 D5 B9 A0 F7 57 4D B4 
2F 10 08 B8 5C 2E 9D AC 7C D7 AE 5D 7C 3E 1F 65 84 45 6D 2E 5D BA B4 B1 2E 01 80 50 28 94 CB E5 
AA 1A 00 C0 C8 91 23 95 5B 2E 2F 2F 57 AD BF 74 EC D8 31 42 77 25 1B 35 01 5B F4 46 03 00 0B 17 
2E 64 30 18 E9 E9 E9 68 4B 52 52 12 93 C9 44 A9 55 55 2D 6A 70 8B AA 45 04 41 0C 1D 3A 94 DE 92 
94 94 44 92 64 64 64 24 BD FF 9F 7F FE D9 58 B6 19 00 70 75 75 BD 76 ED 5A 83 16 F5 E8 D1 63 E8 
D0 A1 6A D2 D4 94 97 97 BB BA BA 7A 7B 7B 1B D2 22 FC 5C F4 46 43 92 E4 D8 B1 63 29 8A 8A 8A 8A 
22 08 82 A2 A8 BD 7B F7 F6 EE DD BB 5E A0 86 F2 19 43 10 04 AA 5B A1 BE 59 3F 3F 3F FA BF B6 B6 
B6 14 45 45 47 47 D3 AD F5 EF DF 9F 7E 2E 12 8B C5 17 2F 5E 54 7E 6F 7A 7A BA 97 97 57 83 2D 67 
65 65 F1 78 BC 61 C3 86 C9 64 B2 05 0B 16 14 15 15 D5 EB E7 0F 3F FC 90 9B 9B BB 73 E7 4E CD BF 
04 1D 60 30 5F 31 A6 09 00 78 79 79 A1 5C C7 55 55 55 72 B9 7C EB D6 AD F4 4B AA 27 0C 9F CF 57 
FF 5C 84 B6 D0 19 FD 29 8A AA AD AD 25 08 82 C7 E3 51 FF 5E 6A 50 0B 85 85 85 9B 37 6F B6 B6 B6 
16 08 04 F5 6A D5 34 F8 B8 05 00 28 FB 05 5D C6 B7 6D DB B6 B7 6F DF A6 77 48 49 49 E1 70 38 DF 
7F FF 7D 83 6F D7 1F D8 22 0C B5 65 CB 16 92 24 6F DC B8 11 1D 1D CD 66 B3 5F BC 78 81 B6 D3 16 
D1 67 AD 48 24 AA 57 9D B6 B9 16 A9 72 F9 F2 65 82 20 E8 E1 87 C6 9A A5 FB 23 95 4A 51 89 2A 54 
35 43 24 12 A1 57 15 0A 45 DF BE 7D BB 76 ED 8A 4A 77 62 8B 30 06 A5 A0 A0 80 CB E5 06 04 04 0C 
1E 3C 58 B9 7A 8D EA 53 90 2A 8D 59 84 9E 82 10 99 99 99 C4 EB 4F 4A F5 F6 27 08 C2 CA CA 4A 7D 
B3 D4 BF C5 7C A3 A3 A3 E9 2D 67 CF 9E A5 77 8B 88 88 60 B1 58 D7 AE 5D 43 29 D0 50 9D 01 6D 52 
7C 6A 0E 7E 2E C2 10 12 89 C4 C7 C7 27 32 32 F2 FC F9 F3 FE FE FE DA 37 48 29 3D 05 11 04 91 9D 
9D AD FC A4 44 BD 3E 6D 9A 9F 9F 4F 10 84 86 89 CA 1C 1D 1D 13 12 12 E8 76 6E DF BE 4D FF 3B 24 
24 44 A1 50 F4 EC D9 93 C9 64 B2 58 2C 8A A2 1A 9B 8C D2 3D 06 30 15 63 FA 9C 3E 7D 9A 20 08 0E 
87 53 58 58 48 6F 6C F1 B5 48 28 14 72 B9 DC AC AC 2C 00 28 2B 2B 0B 0C 0C 14 89 44 F4 48 B7 BB 
BB 7B 46 46 06 BA 50 E4 E7 E7 0F 1C 38 B0 DE B3 56 83 CD A2 8D 9F 7C F2 09 8F C7 7B F0 E0 41 55 
55 D5 E9 D3 A7 2D 2D 2D A5 52 29 7A B5 A2 A2 82 BE F2 E0 3B 3A 8C 11 A8 A9 A9 71 70 70 F8 E2 8B 
2F 94 37 B6 CC 22 8A A2 E2 E2 E2 84 42 A1 54 2A 45 A3 79 CA 92 00 00 5D F3 0F A1 FA AC D5 58 B3 
14 45 9D 39 73 86 BE 6A 31 18 8C E9 D3 A7 37 58 42 17 5B 84 31 0E 3F FF FC 73 4C 4C 8C F2 16 74 
C6 D3 3F F6 0D 02 00 0D D6 01 C8 CC CC 0C 0C 0C 44 4F FF 67 CF 9E 55 7E 09 95 A6 E5 F3 F9 6A 2A 
49 37 D6 2C 45 51 4F 9F 3E 1D 3C 78 30 87 C3 51 53 C3 57 CD DB F5 01 8E 46 C5 60 B4 05 8F 2E 60 
30 DA 82 2D C2 60 B4 05 5B 84 C1 68 0B B6 08 83 D1 16 6C 11 06 A3 2D D8 22 0C 46 5B B0 45 18 8C 
B6 60 8B 30 18 6D C1 16 61 30 DA 82 2D C2 60 B4 05 5B 84 C1 68 0B B6 08 83 D1 16 6C 11 06 A3 2D 
FF 07 86 DB 0B FF A1 D8 0E D2 00 00 00 00 49 45 4E 44 AE 42 60 82 
EndData
$EndBitmap
$Bitmap
Pos 2490 7160
Scale 1.000000
Data
89 50 4E 47 0D 0A 1A 0A 00 00 00 0D 49 48 44 52 00 00 00 C8 00 00 00 9D 08 02 00 00 00 7E 79 A0 
8D 00 00 00 03 73 42 49 54 08 08 08 DB E1 4F E0 00 00 20 00 49 44 41 54 78 9C ED 9D 79 5C 13 D7 
DA C7 9F C9 C2 16 08 10 20 6C 61 11 44 36 11 2C AD 56 BD 82 15 15 B4 0A AE 68 5B 37 94 2B B8 A0 
56 A9 6B 6F 51 5A B5 75 5F AE D7 D6 2A 2E B8 6F 28 A0 88 28 6E 20 0A 4A 91 45 04 54 90 08 11 02 
04 08 4B 20 CB BC 7F 9C B7 F3 C9 65 33 2C 11 E2 9D EF 5F 93 93 73 9E 79 32 F3 CB CC 99 33 E7 3C 
0F 86 E3 38 90 90 F4 34 94 DE 76 80 E4 D3 84 14 16 89 52 20 85 45 A2 14 48 61 91 28 05 52 58 24 
4A 81 14 16 89 52 20 85 45 A2 14 48 61 91 28 05 52 58 24 4A 81 14 16 89 52 20 85 45 A2 14 48 61 
91 28 05 52 58 24 4A 81 A6 48 A5 A8 A8 A8 9A 9A 9A D6 E5 93 27 4F D6 D3 D3 03 80 A4 A4 A4 27 4F 
9E 34 34 34 70 38 1C 1F 1F 1F 53 53 D3 36 ED E0 38 7E E3 C6 8D EC EC 6C 6D 6D ED E9 D3 A7 1B 1B 
1B 13 85 59 59 59 4C 26 D3 DB DB DB D6 D6 B6 45 AB C6 C6 C6 F3 E7 CF 13 1F 99 4C A6 83 83 83 93 
93 13 FA D8 D0 D0 E0 E4 E4 64 6F 6F 1F 1F 1F AF C8 6F 69 93 CE 1A E9 D8 25 E5 ED B7 FB AC 5B B7 
EE DC B9 73 47 8E 1C 79 F7 EE 5D 8B AF FA F5 EB E7 E9 E9 39 6F DE BC E4 E4 E4 84 84 84 7E FD FA 
75 6B 4F B8 02 D8 DB DB B7 D9 36 2B 2B AB BC BC 7C E4 C8 91 F2 85 EA EA EA 7B F6 EC 69 6D 44 2A 
95 7A 7B 7B 03 00 85 42 01 00 03 03 83 BC BC 3C A9 54 3A 69 D2 24 A2 2D 9D 4E BF 76 ED 5A 8B 86 
3C 1E AF F5 AE A7 4D 9B 26 16 8B 71 1C 17 0A 85 00 E0 EC EC AC C8 0F 91 27 32 32 D2 C5 C5 05 6D 
37 35 35 85 85 85 1D 3C 78 50 C1 B6 1D BB A4 38 5D 76 BE 6B 64 67 67 53 A9 D4 09 13 26 B4 E9 FF 
AC 59 B3 70 1C CF CC CC C4 30 CC CF CF AF 9B FB 52 48 58 6F DF BE 2D 28 28 28 28 28 70 74 74 04 
80 3B 77 EE A0 8F 4D 4D 4D 63 C6 8C 01 80 AF BF FE FA F9 F3 E7 65 65 65 67 CF 9E D5 D7 D7 07 80 
E8 E8 E8 16 46 2E 5F BE 0C 00 3E 3E 3E 22 91 E8 E4 C9 93 00 30 73 E6 CC DB B7 6F 03 C0 A8 51 A3 
84 42 21 FA D7 0E 1B 36 AC 45 43 74 14 CC CC CC 72 73 73 73 73 73 EF DE BD EB E6 E6 06 00 87 0F 
1F C6 5B 9D 9B A2 A2 A2 1B 37 6E 24 25 25 35 35 35 C9 1B C9 CB CB 8B 8E 8E 4E 48 48 10 0A 85 38 
8E 67 67 67 7B 78 78 E8 EA EA A6 A5 A5 55 57 57 4B A5 D2 B4 B4 B4 EC EC 6C A2 7E 75 75 F5 FD FB 
F7 13 13 13 6B 6B 6B 5B 1F 90 8E 5D EA C0 8D 16 66 5B 38 5F 50 50 80 FC E9 C0 48 4E 4E CE B5 6B 
D7 4A 4A 4A 2A 2A 2A D2 D2 D2 CA CB CB 89 AF 2A 2B 2B 13 13 13 EF DC B9 D3 D0 D0 D0 E6 79 0C 0C 
0C 04 80 C4 C4 44 89 44 92 FB 37 CF 9F 3F B7 B5 B5 A5 52 A9 B7 6F DF 46 D5 C6 8C 19 83 61 D8 AB 
57 AF DA 34 A2 20 0A 09 8B C0 D5 D5 15 00 0A 0A 0A D0 C7 CC CC 4C 00 30 37 37 6F 6C 6C 24 EA 1C 
3D 7A 14 00 46 8E 1C D9 A2 6D 78 78 38 00 1C 3A 74 08 7D 64 30 18 FA FA FA 95 95 95 4F 9E 3C 79 
FB F6 2D FE F7 D9 72 70 70 68 D1 10 95 5B 59 59 11 25 BF FF FE 3B 00 2C 59 B2 04 FF EF 73 B3 6A 
D5 2A 0C C3 58 2C 16 95 4A B5 B5 B5 2D 2D 2D C5 71 5C 26 93 CD 9F 3F 1F 00 74 75 75 D5 D4 D4 98 
4C 66 62 62 A2 B3 B3 33 F1 4F 8D 89 89 69 71 82 2F 5C B8 C0 64 32 31 0C 43 D6 88 23 AE A0 4B 6D 
BA D1 A6 59 F9 FD 3E 78 F0 40 4D 4D CD CB CB 0B C9 A8 4D 23 EB D6 AD 03 00 0C C3 18 0C C6 37 DF 
7C 03 00 7F FE F9 27 32 1E 11 11 A1 A5 A5 C5 62 B1 B4 B4 B4 38 1C 0E 71 8E 08 64 32 99 9E 9E 9E 
89 89 49 8B F2 C5 8B 17 03 C0 D6 AD 5B 89 92 23 47 8E 00 C0 B6 6D DB F0 6E D0 2D 61 45 44 44 00 
C0 DC B9 73 E5 EB BC 7F FF 1E 00 34 34 34 5A B4 3D 74 E8 10 00 AC 5C B9 12 C7 71 1E 8F 47 A5 52 
01 A0 AE AE 0E 7D 2B 91 48 66 CC 98 01 00 5B B6 6C 69 D1 B0 C5 59 94 C9 64 B3 67 CF 26 7E 39 71 
6E B8 5C AE 93 93 93 8F 8F 8F 54 2A 3D 7E FC 38 00 AC 5F BF 1E C7 F1 DC DC 5C 00 58 B8 70 21 8E 
E3 7C 3E DF C7 C7 E7 E7 9F 7F AE AD AD 65 B1 58 2C 16 4B 20 10 88 C5 62 F9 13 FC FE FD 7B 6D 6D 
6D 73 73 F3 92 92 92 D7 AF 5F 6B 68 68 98 9A 9A 4A 24 12 05 5D 6A CF 8D 36 CD 56 57 57 A3 FD E6 
E7 E7 1B 18 18 B8 B9 B9 D5 D4 D4 E0 38 DE A6 91 D7 AF 5F 53 28 14 13 13 93 B7 6F DF 16 15 15 99 
98 98 00 C0 B1 63 C7 50 7D 0D 0D 0D 77 77 77 91 48 54 5A 5A CA 64 32 A7 4D 9B D6 E2 30 A2 E3 D0 
E2 1E 77 E2 C4 09 54 28 93 C9 88 C2 17 2F 5E 00 C0 E4 C9 93 3B 50 C2 07 51 A8 F3 DE 1E 8D 8D 8D 
00 80 FA EF 04 E8 56 D8 DC DC 9C 93 93 93 95 95 05 00 14 0A C5 DF DF 7F EA D4 A9 6B D7 AE DD BF 
7F 7F 41 41 41 66 66 26 9D 4E 97 4A A5 12 89 04 00 EA EB EB 67 CD 9A 15 1B 1B FB F5 D7 5F AF 59 
B3 A6 CD 7D 95 96 96 A2 DB 4D 79 79 39 8F C7 B3 B4 B4 44 17 76 02 0E 87 93 9E 9E FE F8 F1 E3 8B 
17 2F 16 17 17 03 40 51 51 11 00 68 6B 6B 53 A9 D4 4B 97 2E A9 A9 A9 79 78 78 44 46 46 1A 1A 1A 
02 00 86 61 AD 9D 07 80 7B F7 EE D5 D5 D5 CD 99 33 C7 CC CC 0C 00 0A 0A 0A 68 34 1A EA 17 2A E2 
92 A1 A1 61 9B 6E 74 60 B6 B6 B6 76 C2 84 09 B5 B5 B5 31 31 31 4C 26 B3 BD DF 92 9A 9A 2A 93 C9 
7C 7D 7D 2D 2D 2D 01 C0 DF DF 7F FF FE FD C8 93 87 0F 1F 8A 44 22 3D 3D BD 63 C7 8E 01 80 B1 B1 
F1 8D 1B 37 5A 78 8B 7A EB 1C 0E 87 28 C9 C8 C8 08 0E 0E B6 B3 B3 3B 79 F2 24 3A 1A 08 73 73 73 
00 28 29 29 69 F3 44 28 48 B7 84 85 3C C8 CF CF 97 2F 7C FD FA 35 FA 2A 26 26 66 FD FA F5 00 40 
A5 52 FD FD FD D9 6C 76 72 72 F2 AE 5D BB F8 7C 7E 78 78 F8 6F BF FD F6 E6 CD 1B 1D 1D 9D 9A 9A 
9A B1 63 C7 A6 A5 A5 2D 5E BC 78 DF BE 7D 34 5A DB 2E D1 68 34 74 50 FA F7 EF 3F 68 D0 A0 25 4B 
96 20 7D 10 BC 7D FB 76 E4 C8 91 7C 3E DF D3 D3 B3 B9 B9 19 00 64 32 19 00 70 38 9C D8 D8 D8 0D 
1B 36 FC FE FB EF 87 0E 1D 52 53 53 3B 78 F0 60 0B 51 CA 83 AE B8 E8 EF 01 FF 7D 26 14 71 A9 3D 
37 DA 34 5B 57 57 07 00 5C 2E 97 C5 62 89 C5 E2 AB 57 AF 2E 5B B6 AC BD DF 82 2E 6F C4 3F 81 C5 
62 11 9E 94 97 97 A3 13 71 EA D4 29 00 60 B3 D9 6C 36 5B 28 14 EA E8 E8 10 75 EA EB EB 01 40 5B 
5B 1B 7D 14 08 04 53 A7 4E A5 50 28 57 AE 5C 41 6A 26 40 AD D0 55 BC EB 74 EA FA D6 E2 56 28 10 
08 18 0C 06 85 42 49 4B 4B 23 EA 2C 5C B8 10 00 42 42 42 DE BC 79 13 17 17 17 17 17 17 1F 1F 8F 
E3 B8 48 24 CA C8 C8 40 5D C2 F2 F2 72 1A 8D 36 74 E8 50 89 44 32 6A D4 28 00 D8 B9 73 67 7B 3B 
6D DD A1 91 87 B8 8B FD EB 5F FF 02 80 BD 7B F7 E2 38 7E E5 CA 15 00 98 39 73 26 51 4D 26 93 09 
04 82 A8 A8 28 36 9B 6D 68 68 88 E3 B8 81 81 81 81 81 41 0B 23 44 5B E2 FE 7E EA D4 A9 03 07 0E 
A0 2E BF 22 2E B5 E7 46 9B 66 91 9D 7E FD FA 09 04 02 0B 0B 0B 26 93 89 FA 52 6D 1A B9 76 ED 1A 
00 10 F7 38 7F 7F 7F F8 FB 56 88 EA 04 07 07 B7 77 0C 71 1C 47 CF 49 A8 17 28 95 4A C7 8F 1F 0F 
00 67 CE 9C 69 5D 13 0D 2D 0D 19 32 A4 03 6B 1F A4 5B 57 2C 3D 3D BD 9F 7F FE 79 D5 AA 55 A3 46 
8D 0A 0C 0C 34 33 33 4B 4C 4C 8C 8F 8F 37 37 37 FF E9 A7 9F 0C 0D 0D E5 C7 42 B8 5C EE E0 C1 83 
AD AD AD 57 AF 5E 7D E1 C2 05 89 44 12 14 14 74 EC D8 B1 7B F7 EE E9 EB EB F3 F9 7C D4 33 05 80 
5F 7E F9 A5 BD EB 56 07 A0 8B 79 5A 5A DA ED DB B7 C3 C3 C3 A9 54 6A 51 51 91 40 20 48 49 49 99 
35 6B D6 8A 15 2B 02 02 02 AC AD AD 89 BF AC A6 A6 26 8F C7 8B 89 89 19 3A 74 A8 96 96 16 61 67 
CC 98 31 C6 C6 C6 51 51 51 FE FE FE 32 99 2C 30 30 D0 C2 C2 62 C9 92 25 DD 74 A3 4D B3 73 E7 CE 
05 00 2D 2D 2D 3D 3D BD 9D 3B 77 CE 9C 39 73 E5 CA 95 E7 CF 9F 6F D3 88 9B 9B 1B 93 C9 8C 8E 8E 
DE BE 7D BB 44 22 91 1F FA 1A 33 66 0C 9B CD BE 78 F1 E2 F4 E9 D3 25 12 49 40 40 C0 F0 E1 C3 2F 
5D BA 24 EF 98 85 85 05 3A 0B 00 B0 77 EF DE B8 B8 38 33 33 B3 E7 CF 9F 3F 7F FE 9C 38 20 61 61 
61 44 9D 0E 2E D5 0A D1 29 19 B6 B8 62 21 8E 1D 3B D6 BF 7F 7F 64 4D 5D 5D 7D D6 AC 59 25 25 25 
6D 36 3F 70 E0 00 3A AF 1A 1A 1A 1B 36 6C C0 71 7C ED DA B5 AD 5D 92 7F C6 C4 15 BE 62 15 17 17 
A3 C1 55 1D 1D 9D 33 67 CE 4C 9F 3E 1D 00 66 CD 9A 25 16 8B 83 83 83 D5 D5 D5 91 71 27 27 A7 47 
8F 1E E1 7F 3F 61 51 28 94 B3 67 CF B6 78 2A 4C 49 49 41 03 2B 00 E0 EE EE FE E2 C5 8B 16 3B ED 
C0 A5 F6 DC 68 D3 6C 8B FD A2 8B 77 5C 5C 5C 7B 46 E2 E3 E3 1D 1D 1D 75 74 74 A6 4D 9B 16 1A 1A 
0A 00 27 4E 9C 40 6D 93 92 92 88 E1 C6 21 43 86 B4 F9 54 68 60 60 60 64 64 24 93 C9 82 82 82 5A 
1F 76 5D 5D 5D 54 F3 F0 E1 C3 00 B0 63 C7 8E 36 0F B8 82 74 4E 58 1D C0 E7 F3 B9 5C EE 07 47 08 
9B 9B 9B B9 5C 6E 7B 03 2D DD 44 2A 95 96 94 94 88 44 22 F4 B1 A6 A6 86 78 D8 69 6A 6A E2 72 B9 
55 55 55 F2 F5 2B 2B 2B 89 CA AD 11 08 04 F2 A3 44 3D E2 86 E2 66 5B 1B 91 4A A5 45 45 45 19 19 
19 A8 04 89 23 31 31 51 BE 55 65 65 65 45 45 45 7B 36 D1 C8 C2 CD 9B 37 3B DE B5 A7 A7 27 85 42 
29 2A 2A FA A0 93 1D D0 63 C2 22 51 36 62 B1 D8 D2 D2 92 42 A1 84 85 85 ED D8 B1 83 C1 60 D8 DA 
DA D6 D7 D7 2B 6E E1 E5 CB 97 74 3A 7D F4 E8 D1 1D D4 49 4D 4D 05 00 7F 7F FF 6E 7A 4B DD B4 69 
53 57 EF A2 24 1F 15 0A 85 32 71 E2 44 3E 9F 7F FB F6 ED EC EC EC B1 63 C7 1E 3D 7A D4 C8 C8 48 
71 0B E8 39 FA C9 93 27 AE AE AE 68 CC A2 35 61 61 61 32 99 EC F8 F1 E3 BA BA BA DD F1 16 C3 C9 
25 F6 24 4A 80 9C 36 43 A2 14 48 61 91 28 05 52 58 24 4A 81 14 16 89 52 20 85 45 A2 14 48 61 91 
28 05 52 58 24 4A 81 14 16 89 52 20 85 45 A2 14 48 61 91 28 05 52 58 24 4A 81 14 16 89 52 20 85 
45 F2 FF A0 95 48 3D 65 AD 73 33 80 25 12 C9 E9 D3 A7 73 73 73 83 82 82 D0 B4 E3 A4 A4 24 A1 50 
88 26 50 BF 7D FB F6 E9 D3 A7 E3 C6 8D DB B1 63 07 5A 02 00 00 6E 6E 6E F6 F6 F6 C4 82 F4 65 CB 
96 71 38 1C 1E 8F 77 F9 F2 65 B4 70 00 00 22 22 22 E6 CC 99 13 19 19 49 AC CB D0 D6 D6 0E 0D 0D 
D5 D0 D0 50 D0 B1 BC BC BC 36 57 F7 AA 10 4C 26 D3 C5 C5 85 4E A7 2B 52 F9 EA D5 AB E5 E5 E5 8B 
16 2D DA B4 69 53 58 58 18 9A CA BC 74 E9 D2 D5 AB 57 DB D8 D8 2C 5C B8 10 CD 5B D7 D7 D7 DF B3 
67 8F B6 B6 76 78 78 F8 B8 71 E3 BE FC F2 4B 00 D8 BD 7B B7 8B 8B 8B 4C 26 FB F3 CF 3F 09 83 F3 
E7 CF 9F 38 71 62 4F FE 1E C5 A7 6E 89 C5 E2 4D 9B 36 E9 EA EA 1A 1B 1B 3B 38 38 14 16 16 E2 38 
FE E3 8F 3F 06 06 06 A2 0A D1 D1 D1 53 A6 4C C9 CF CF B7 B5 B5 35 31 31 A1 52 A9 D6 D6 D6 0B 17 
2E DC BB 77 AF 96 96 96 B5 B5 B5 A9 A9 E9 C0 81 03 0B 0B 0B 13 13 13 6D 6C 6C 08 CB A6 A6 A6 E5 
E5 E5 D3 A6 4D B3 B6 B6 A6 D3 E9 6C 36 7B C0 80 01 EF DF BF 57 D0 B1 53 A7 4E B5 B9 3C 4B E5 F8 
FE FB EF 15 FC C9 9B 36 6D 9A 3F 7F 3E 8E E3 FA FA FA 31 31 31 A8 D0 CC CC 2C 39 39 19 C7 71 26 
93 B9 7A F5 EA 1D 3B 76 D8 DB DB AF 5D BB 16 C7 F1 7F FC E3 1F A7 4E 9D 42 D5 FC FC FC F6 ED DB 
F7 FC F9 F3 1D 3B 76 7C F1 C5 17 63 C7 8E DD B1 63 C7 B3 67 CF 14 DC B5 82 74 E2 7C C4 C4 C4 44 
46 46 3E 7C F8 B0 B4 B4 74 C2 84 09 68 CE 75 6B EC EC EC 5E BD 7A 75 E9 D2 25 63 63 E3 C2 C2 42 
B4 AC 76 DC B8 71 85 85 85 25 25 25 66 66 66 17 2F 5E 6C B3 E1 A5 4B 97 0A 0B 0B ED ED ED 23 22 
22 F2 F2 F2 50 C8 10 45 B8 78 F1 22 5A 62 A5 EA 1C 3B 76 AC B3 8B AE 1A 1A 1A 56 AD 5A D5 D0 D0 
D0 A2 7C DE BC 79 A1 A1 A1 9B 37 6F 26 D6 1E B6 60 D0 A0 41 A1 A1 A1 03 07 0E 1C 36 6C 58 68 68 
E8 67 9F 7D D6 45 A7 DB A1 13 B7 C2 FB F7 EF 7B 7B 7B BB B8 B8 00 C0 F4 E9 D3 27 4C 98 F0 F6 ED 
DB 4E ED 0C C3 30 2D 2D 2D B1 58 DC 39 1F 3B 24 3F 3F 3F 33 33 93 C1 60 0C 1D 3A 74 EA D4 A9 3D 
68 F9 63 92 92 92 72 FD FA 75 5D 5D DD E8 E8 E8 EF BE FB AE 53 6D C5 62 F1 EE DD BB 7F FC F1 C7 
D6 5F 55 57 57 33 18 8C 1E F2 B1 73 74 42 58 C5 C5 C5 44 60 99 61 C3 86 69 68 68 28 DE AD 49 4E 
4E 46 51 09 CA CA CA B6 6F DF DE 3A 86 4E 97 39 73 E6 8C BA BA 3A 9B CD FE D7 BF FE 85 56 B9 A8 
22 7E 7E 7E 59 59 59 45 45 45 77 EF DE ED AC B0 B6 6D DB B6 68 D1 22 5F 5F 5F F9 42 6F 6F 6F 35 
35 B5 BA BA BA 3F FE F8 A3 47 3D 55 94 2E AE 2B 94 4A A5 F2 8B B2 3F 08 87 C3 41 C7 6B C4 88 11 
76 76 76 3D 28 AC A7 4F 9F 72 B9 DC CF 3F FF DC DD DD BD A7 6C 7E 7C 38 1C 8E A7 A7 27 8F C7 8B 
8D 8D 7D F3 E6 8D 8D 8D 8D E2 6D DD DC DC E6 CD 9B B7 6E DD 3A F9 5B C1 D6 AD 5B 6D 6C 6C F4 F4 
F4 06 0D 1A A4 04 7F 3F 4C 27 FA 58 0E 0E 0E 28 BC 0C 00 3C 78 F0 40 2A 95 A2 35 90 44 FF A6 83 
8E 8E 95 95 D5 82 05 0B 16 2C 58 40 AC 7D 93 C9 64 22 91 08 00 5A F7 0F 14 E7 E6 CD 9B 8F 1E 3D 
EA D7 AF 9F 8F 8F 8F FC 72 72 55 64 E8 D0 A1 BA BA BA 74 3A FD EA D5 AB 9D 6D BB 79 F3 E6 82 82 
02 81 40 40 94 B8 BB BB 7B 78 78 10 AA 52 57 57 47 47 1B 00 44 22 11 B1 CA 52 79 74 42 58 7E 7E 
7E 89 89 89 77 EF DE 6D 68 68 F8 E3 8F 3F FC FC FC CC CD CD 87 0C 19 F2 F0 E1 C3 BC BC BC C6 C6 
C6 D8 D8 58 62 E5 6A C7 B8 B9 B9 49 A5 D2 6B D7 AE 35 37 37 5F BE 7C D9 C2 C2 A2 45 20 06 44 65 
65 65 C7 76 AE 5F BF 0E 00 14 0A C5 CB CB 4B F1 1F D2 37 F1 F7 F7 B7 B0 B0 A8 A9 A9 39 7E FC B8 
54 2A 6D 5D 21 2D 2D AD BD EE 29 8B C5 5A BF 7E 3D 0A E0 D3 26 DE DE DE BB 76 ED 7A F8 F0 E1 D9 
B3 67 53 53 53 47 8F 1E DD 63 7E B7 43 27 6E 85 43 87 0E 0D 09 09 99 34 69 12 85 42 B1 B2 B2 BA 
73 E7 0E 00 4C 9C 38 31 21 21 61 F0 E0 C1 34 1A CD D2 D2 12 05 08 F8 20 FA FA FA BB 77 EF 5E B0 
60 C1 B2 65 CB 9A 9A 9A CE 9C 39 D3 E6 8D 75 EF DE BD BA BA BA CB 97 2F 57 53 53 6B FD AD 50 28 
4C 48 48 10 8B C5 B6 B6 B6 3D FE 50 F3 F1 A1 D3 E9 E3 C7 8F CF C9 C9 A9 A8 A8 48 4C 4C 1C 3B 76 
AC FC B7 51 51 51 02 81 E0 8B 2F BE 40 1F 69 34 1A 92 11 8D 46 43 E1 08 02 02 02 4E 9F 3E 8D B6 
89 6F 09 56 AD 5A 95 91 91 E1 E5 E5 A5 A5 A5 B5 7B F7 6E 3B 3B 3B 54 4E A5 52 3B 90 63 B7 E8 EC 
F8 44 71 71 71 66 66 26 0A E3 84 90 C9 64 C5 C5 C5 B9 B9 B9 F2 CB A0 A5 52 E9 EB D7 AF D1 76 75 
75 75 9B 8B EE AB AA AA 32 33 33 05 02 81 7C 61 61 61 21 B1 C4 5E 2A 95 1E 39 72 24 24 24 84 C7 
E3 B5 6E 7E E8 D0 21 47 47 47 2B 2B AB 88 88 88 CE FE 8A BE C9 93 27 4F 38 1C 8E B9 B9 F9 BA 75 
EB 88 42 91 48 B4 6F DF BE B3 67 CF 4A A5 52 A2 50 22 91 34 37 37 E3 38 2E 1F 8E 40 2C 16 A3 25 
D7 2D 62 14 10 34 36 36 B6 88 30 D8 DC DC DC 22 F4 57 4F A1 02 2B A1 1F 3C 78 10 18 18 D8 3A 80 
C2 37 DF 7C 63 6A 6A 6A 63 63 C3 E5 72 7B C5 31 65 30 77 EE 5C 53 53 53 23 23 23 3E 9F 8F E3 78 
6D 6D ED AF BF FE 9A 90 90 D0 DB 7E 75 1A 15 10 16 8E E3 5C 2E 77 EE DC B9 E7 CE 9D 23 82 20 E4 
E4 E4 98 9B 9B 1B 18 18 FC F2 CB 2F BD EB 5B CF 12 19 19 E9 E0 E0 E0 E0 E0 70 F2 E4 49 1E 8F B7 
71 E3 C6 BF FE FA AB B7 9D EA 0A AA F1 26 84 C3 E1 FC F1 C7 1F B9 B9 B9 DB B6 6D 43 C1 CA 6E DC 
B8 A1 A5 A5 85 61 18 11 BF E5 D3 C0 C7 C7 A7 B6 B6 F6 DD BB 77 11 11 11 E1 E1 E1 41 41 41 28 68 
A0 EA D1 DB CA EE 1C D1 D1 D1 4B 96 2C 29 28 28 F0 F4 F4 D4 D1 D1 19 39 72 64 A7 A2 62 A8 04 CB 
97 2F 37 36 36 D6 D7 D7 97 0F 67 A7 72 74 2B F0 DA C7 67 D2 A4 49 36 36 36 1B 36 6C C8 CC CC D4 
D2 D2 F2 F1 F1 91 8F 99 F6 69 A0 AE AE 2E 14 0A 4D 4C 4C 1E 3E 7C F8 F9 E7 9F F7 B6 3B 5D 44 35 
6E 85 F2 38 3B 3B F7 EF DF 9F 4A A5 8A C5 E2 71 E3 C6 F5 B6 3B 3D 89 58 2C 0E 0F 0F 77 74 74 74 
73 73 AB AC AC BC 76 ED 1A 0A 1F AC 8A A8 9E B0 4A 4B 4B A3 A2 A2 9A 9B 9B 0D 0C 0C 4E 9E 3C 29 
3F DC AC D2 D4 D5 D5 6D DA B4 E9 8B 2F BE 40 81 1E B5 B5 B5 DF BC 79 F3 E8 D1 A3 DE F6 AB 8B A8 
9E B0 6E DD BA 55 5F 5F 6F 60 60 B0 6A D5 AA 49 93 26 AD 59 B3 26 3D 3D BD B7 9D EA 2E 45 45 45 
DB B7 6F 9F 36 6D 1A 9A 32 19 10 10 80 61 58 4D 4D CD FD FB F7 7B DB B5 AE D2 DB 9D BC 4E B3 64 
C9 12 26 93 C9 66 B3 8B 8B 8B 71 1C 7F FB F6 ED D2 A5 4B 2F 5C B8 D0 DC DC 3C 73 E6 CC 0E 02 25 
F6 35 50 D0 F6 67 CF 9E 65 64 64 AC 5F BF 1E A5 E7 20 F0 F6 F6 D6 D3 D3 73 77 77 57 A1 5F 24 8F 
8A 5D B1 D2 D2 D2 12 12 12 B4 B5 B5 27 4F 9E 8C 5E 81 5B 5A 5A FE F6 DB 6F 79 79 79 D3 A6 4D 7B 
F2 E4 C9 B6 6D DB 7A DB 47 45 39 7E FC F8 BB 77 EF 16 2D 5A 74 FD FA F5 35 6B D6 B4 08 B1 37 76 
EC 58 4D 4D CD CA CA CA B8 B8 B8 DE F2 B0 3B A8 98 B0 12 12 12 D0 F8 82 9F 9F 1F 51 C8 60 30 D8 
6C 76 6A 6A 6A 45 45 C5 F5 EB D7 BB 30 3B E0 E3 53 5B 5B 1B 11 11 61 6D 6D 2D 10 08 8A 8A 8A 5A 
BF 0C 5D BE 7C 39 83 C1 28 2F 2F 8F 8F 8F 57 C5 F9 B1 AA 24 AC FA FA FA A4 A4 A4 EA EA 6A 47 47 
47 94 75 0C C1 E5 72 2F 5C B8 A0 A1 A1 C1 66 B3 F9 7C FE AA 55 AB 50 96 91 BE CC B2 65 CB A8 54 
2A 8F C7 A3 D1 68 B9 B9 B9 28 9D 87 3C 74 3A DD DB DB 9B C5 62 65 67 67 A3 34 38 AA 85 2A 09 EB 
D1 A3 47 39 39 39 16 16 16 E3 C6 8D 93 FF 8B 5B 58 58 DC BE 7D 3B 31 31 11 C5 E3 7F F7 EE 9D BF 
BF 7F 6D 6D 6D EF 79 FA 01 0E 1C 38 70 F7 EE DD 37 6F DE B8 BA BA 9E 39 73 E6 E1 C3 87 68 C2 77 
0B 50 D6 AA 92 92 92 7B F7 EE 7D 6C 17 BB 4F 6F 77 F2 3A C1 8A 15 2B 98 4C A6 85 85 45 07 AF CF 
44 22 D1 E9 D3 A7 5D 5D 5D 97 2F 5F 2E 1F 5D BD EF 90 9B 9B 6B 6A 6A 1A 18 18 F8 C1 84 80 32 99 
6C C2 84 09 9A 9A 9A AE AE AE 2D 66 25 F4 7D 54 26 6A 72 73 73 B3 A1 A1 A1 50 28 A4 D3 E9 44 DA 
92 F6 90 48 24 42 A1 90 C8 88 D4 A7 68 6A 6A 12 8B C5 1F FC 09 08 62 A2 CB 8D 1B 37 D0 48 84 AA 
A0 32 AF 74 92 93 93 D1 D2 28 75 75 F5 8E 5F E3 F0 78 3C 99 4C C6 66 B3 5B 2C FE 14 8B C5 28 4B 
96 99 99 D9 07 27 EC BF 7F FF 5E 2A 95 1A 19 19 B5 EE 56 A3 7C 6B A6 A6 A6 1F 5C CC 58 56 56 26 
91 48 0C 0D 0D E5 A7 02 23 E7 91 11 B4 FA B2 03 0B 12 89 04 4D 29 EE FB BD C6 96 F4 F6 25 53 51 
12 13 13 91 C3 AB 57 AF EE B8 26 9B CD 06 80 D6 2B 30 D3 D2 D2 90 05 22 FB 66 07 58 5B 5B 03 40 
52 52 52 8B 72 62 E6 B8 22 69 4B D0 CC 8B 36 67 53 21 3D B5 18 BB 6A CD 4F 3F FD 84 76 D7 3A 55 
76 1F 47 65 3A EF 2C 16 0B 5D 21 4A 4B 4B 7B DB 97 8F 07 B1 C0 4E E5 DE B5 AB 8C B0 5C 5D 5D D1 
84 6E 3E 9F DF DB BE 7C 3C D0 E4 33 00 40 79 59 55 08 95 11 16 00 A0 30 24 4F 9F 3E FD DF D1 16 
F1 4B 55 4E 58 2A D3 79 07 00 77 77 F7 BC BC BC EA EA EA DC DC DC 0F 26 27 6A 68 68 68 11 07 A1 
0B 0B 18 1B 1B 1B 5B 18 69 6A 6A EA BE 11 05 A9 AF AF 47 0B 39 ED EC EC 14 7C 8A EC 3B A8 92 B0 
1C 1D 1D 29 14 8A 4C 26 7B F6 EC 99 87 87 47 C7 95 89 68 00 DD A1 C5 1A AC AE D1 62 F1 BB E2 9C 
3F 7F 1E 0D F3 4E 9C 38 B1 0B 29 67 7B 17 55 BA 15 7E F6 D9 67 E8 E1 3F 39 39 B9 83 6A 1D CF BA 
1C 3B 76 AC 22 EB 80 3B 36 E2 E1 E1 D1 22 41 77 17 8C B8 BB BB B7 B9 4C 97 20 27 27 47 24 12 E9 
EB EB 7B 7B 7B 7F 70 5F 7D 0D 95 19 20 05 80 FA FA 7A 74 37 D4 D3 D3 2B 28 28 68 EF AC 88 C5 E2 
0E 26 5E 6A 6A 6A 2A 12 DC AC B0 B0 D0 DF DF 7F DB B6 6D 43 86 0C E9 B2 11 89 44 D2 C1 FD 57 43 
43 A3 CD 85 B8 08 A9 54 3A 60 C0 80 37 6F DE 98 99 99 65 64 64 74 2A 2F 61 9F A0 B7 C7 3B 3A C7 
AF BF FE 0A 00 3A 3A 3A 91 91 91 CA DB CB FE FD FB D9 6C 36 4A F8 DE 5B 3C 7C F8 D0 C4 C4 04 00 
BE FB EE BB 5E 74 A3 CB A8 98 B0 5E BF 7E CD 64 32 E9 74 BA 87 87 87 32 96 F0 E6 E5 E5 0D 19 32 
C4 CE CE CE C8 C8 28 33 33 B3 C7 ED 2B CE E4 C9 93 D1 EB 81 73 E7 CE F5 A2 1B 5D 46 95 FA 58 00 
60 63 63 13 10 10 80 E3 78 4A 4A 4A CF CE BB 6A 6C 6C 0C 0A 0A F2 F7 F7 6F 6A 6A A2 D1 68 F3 E6 
CD 6B 73 C6 C1 C7 A1 A4 A4 E4 E9 D3 A7 6C 36 7B F0 E0 C1 D3 A6 4D EB 2D 37 BA 83 8A 09 0B 00 C6 
8C 19 A3 AD AD 2D 16 8B 7F F9 E5 17 22 84 6E F7 A9 AF AF D7 D4 D4 14 08 04 55 55 55 65 65 65 4B 
97 2E ED 29 CB 5D 60 ED DA B5 65 65 65 75 75 75 6B D6 AC 51 B9 E7 41 84 EA 09 6B E2 C4 89 E3 C7 
8F D7 D5 D5 CD C8 C8 B8 70 E1 42 4F 99 D5 D3 D3 1B 3A 74 E8 C8 91 23 39 1C CE EC D9 B3 D1 BB C2 
5E 21 3E 3E 3E 3A 3A 5A 2C 16 1B 18 18 A8 E8 E5 0A 40 D5 3A EF 88 E4 E4 64 1D 1D 1D 1D 1D 1D 6B 
6B 6B 45 5E 06 7F 90 EA EA EA 9D 3B 77 46 47 47 CB 64 B2 90 90 90 5E EC 5D 89 C5 62 27 27 27 00 
30 37 37 57 EA 03 8A B2 51 49 61 E1 38 8E 66 57 5A 58 58 84 84 84 C8 C7 F7 E9 02 45 45 45 E1 E1 
E1 8F 1F 3F EE 29 DF BA 43 48 48 88 95 95 15 00 8C 1D 3B 16 05 2A 52 51 54 55 58 A5 A5 A5 CE CE 
CE 2C 16 8B 4E A7 6F DE BC B9 CB 76 FE FA EB AF 1F 7E F8 21 3F 3F BF 07 7D EB 32 07 0E 1C C0 30 
CC D8 D8 D8 CE CE AE 75 D8 26 D5 42 55 85 85 E3 78 7A 7A FA C0 81 03 75 74 74 34 35 35 6F DC B8 
D1 05 0B 77 EF DE FD F9 E7 9F CB CA CA 7A DC B7 2E 70 E7 CE 1D 34 92 62 69 69 99 9E 9E DE DB EE 
74 17 15 16 16 8E E3 E7 CF 9F D7 D6 D6 66 30 18 FD FA F5 BB 77 EF 5E A7 DA FE E7 3F FF D9 B9 73 
A7 22 93 FE 3E 02 39 39 39 AE AE AE 68 E0 EA F0 E1 C3 BD ED 4E 0F 40 DD B4 69 53 AF 3E 3C 74 0B 
67 67 67 99 4C 56 58 58 C8 60 30 8A 8B 8B 4D 4D 4D D1 2A D6 8E 69 6C 6C DC B6 6D 9B 99 99 D9 82 
05 0B 14 4F D7 A3 3C F8 7C FE 8C 19 33 9E 3F 7F CE 64 32 E7 CD 9B 17 16 16 D6 DB 1E F5 04 BD AD 
EC EE D2 D0 D0 B0 76 ED DA 09 13 26 98 9A 9A 9A 9B 9B C7 C5 C5 75 5C BF BA BA 7A F1 E2 C5 D7 AF 
5F FF 38 EE 7D 90 84 84 04 34 CF 4C 57 57 17 E5 58 E8 6D 8F 7A 06 95 17 16 8E E3 8D 8D 8D 1B 37 
6E 44 03 89 FA FA FA 17 2E 5C 68 AF E6 CB 97 2F 97 2C 59 D2 77 7A 30 8F 1F 3F E6 70 38 E8 1F EE 
E9 E9 59 5B 5B DB DB 1E F5 18 9F 82 B0 70 1C AF AD AD 9D 3A 75 2A 8D 46 33 35 35 35 36 36 DE B8 
71 A3 7C 5C 67 44 4A 4A CA C2 85 0B 51 28 91 BE C0 C9 93 27 07 0F 1E 6C 6F 6F 4F A3 D1 26 4D 9A 
24 12 89 7A DB A3 9E E4 13 11 16 8E E3 12 89 E4 D7 5F 7F 45 6B 09 8D 8D 8D 7D 7D 7D B3 B2 B2 88 
6F 2F 5E BC B8 6A D5 AA 16 A1 BF 7B 0B A1 50 18 12 12 C2 60 30 A8 54 AA AE AE EE EC D9 B3 85 42 
61 6F 3B D5 C3 7C 3A C2 42 5C BD 7A D5 D6 D6 56 47 47 47 5F 5F DF C0 C0 60 E3 C6 8D D5 D5 D5 7B 
F6 EC D9 B7 6F 5F 1F E9 BE 1C 3B 76 6C D2 A4 49 18 86 31 18 0C 33 33 B3 F0 F0 F0 4F 4F 55 F8 A7 
27 2C 1C C7 5F BE 7C E9 E9 E9 A9 A9 A9 89 61 18 9D 4E 67 B1 58 8B 17 2F 96 4F 6E D0 5B 3C 78 F0 
60 CA 94 29 2C 16 8B 46 A3 D1 E9 74 67 67 E7 47 8F 1E F5 CD 38 00 DD E7 13 14 16 8E E3 55 55 55 
DB B6 6D D3 D6 D6 46 F3 3C 31 0C 1B 3B 76 6C 2F BE B4 C9 CF CF 9F 33 67 0E 83 C1 B0 B6 B6 D6 D4 
D4 64 B3 D9 0B 16 2C A8 AC AC EC 2D 7F 3E 02 9F A6 B0 70 1C 7F F1 E2 C5 B7 DF 7E 3B 65 CA 14 2B 
2B 2B 53 53 53 00 A0 50 28 A3 46 8D 8A 8C 8C FC 68 3D AD EA EA EA 2B 57 AE CC 99 33 07 4D 41 E6 
70 38 46 46 46 23 46 8C 78 F2 E4 C9 A7 7A A1 22 F8 34 85 95 9E 9E 1E 16 16 86 B2 4A 67 64 64 8C 
1A 35 CA C4 C4 84 4E A7 A3 F5 C4 0E 0E 0E F3 E7 CF BF 72 E5 4A 55 55 95 32 F6 5E 5F 5F FF E0 C1 
83 C5 8B 17 9B 9B 9B A3 3D 52 28 14 0D 0D 0D 7B 7B FB A8 A8 A8 6E BE 32 57 15 3E 35 61 49 A5 D2 
A8 A8 A8 F0 F0 70 F9 31 A1 E6 E6 E6 BB 77 EF 8E 1E 3D 5A 43 43 83 58 04 A1 AB AB 6B 6D 6D 3D 79 
F2 E4 83 07 0F BE 7A F5 8A C8 70 D4 05 64 32 99 4C 26 2B 29 29 B9 75 EB 56 70 70 B0 93 93 93 7C 
C2 5C 35 35 35 27 27 A7 F3 E7 CF 7F 62 03 0A 1D A3 4A AB 74 3E 88 48 24 BA 7C F9 B2 48 24 22 EE 
3E 2D 78 FA F4 69 64 64 E4 B9 73 E7 04 02 81 A1 A1 A1 4C 26 AB AA AA D2 D2 D2 92 4A A5 E6 E6 E6 
4E 4E 4E C3 86 0D 1B 3E 7C 38 83 C1 B0 B5 B5 05 00 6D 6D ED 36 E3 D2 34 34 34 48 A5 D2 77 EF DE 
09 04 82 CC CC CC 3B 77 EE 3C 7F FE BC A0 A0 00 7D 4B A3 D1 24 12 89 A6 A6 A6 89 89 89 87 87 87 
9F 9F 9F AF AF AF B2 B2 B7 F5 55 FA 96 B0 24 12 49 7C 7C BC 50 28 74 75 75 75 74 74 6C 68 68 C8 
CD CD 25 72 F2 C6 C6 C6 8E 19 33 06 C7 F1 EB D7 AF 4B 24 12 0D 0D 8D E1 C3 87 A3 D8 32 00 50 5D 
5D 7D F4 E8 51 5B 5B 5B 5F 5F DF 8E 03 0C 09 85 C2 CC CC CC 88 88 88 F8 F8 78 1E 8F 87 72 11 00 
00 95 4A A5 50 28 62 B1 58 4B 4B AB A1 A1 41 5D 5D 9D C5 62 E1 38 6E 6F 6F 4F 64 A6 E4 F3 F9 35 
35 35 55 55 55 CD CD CD 74 3A BD CD CC 94 56 56 56 03 06 0C 08 08 08 18 3F 7E BC 9E 9E 5E 4F 1E 
20 D5 A1 6F 09 6B D9 B2 65 71 71 71 DA DA DA 15 15 15 31 31 31 18 86 79 79 79 65 64 64 A0 88 C2 
EA EA EA D9 D9 D9 CD CD CD 03 07 0E 74 77 77 47 41 C9 62 63 63 1D 1C 1C B8 5C EE C5 8B 17 3D 3C 
3C 3A 95 23 A4 AE AE 2E 2D 2D 2D 3E 3E FE E6 CD 9B AF 5F BF 6E 6C 6C 6C 33 B5 A9 22 68 69 69 39 
39 39 B9 BB BB FB F9 F9 B9 B9 B9 A1 C7 85 FF 65 FA 90 B0 6E DC B8 B1 60 C1 82 AC AC 2C 23 23 A3 
9F 7E FA 29 25 25 65 FB F6 ED 9F 7D F6 D9 82 05 0B 8E 1C 39 82 61 98 BC B0 78 3C 9E 91 91 D1 AA 
55 AB DE BD 7B 77 E9 D2 A5 A2 A2 22 3A 9D 4E BC 77 EB 02 0D 0D 0D 05 05 05 85 85 85 05 05 05 45 
45 45 59 59 59 4D 4D 4D 5C 2E 97 C1 60 14 15 15 49 24 12 54 0D 29 86 CD 66 33 99 4C 27 27 27 4B 
4B 4B 0B 0B 0B 3B 3B 3B E2 D9 93 E4 FF E9 CD 0E DE 7F B3 7C F9 F2 95 2B 57 A2 6D 89 44 52 5C 5C 
8C 52 4E B0 D9 EC D8 D8 58 1C C7 D5 D4 D4 F2 F3 F3 B3 B3 B3 01 00 E5 5C 4D 4A 4A 32 32 32 6A 33 
7D 6B 4F 21 95 4A EB E4 E8 0B 03 AD 2A 41 1F 5A A5 C3 E7 F3 8D 8D 8D D1 36 95 4A 25 66 56 05 05 
05 FD F8 E3 8F 6D 46 41 1E 31 62 44 63 63 A3 52 D3 E9 50 28 14 86 1C 2A BA 18 EB E3 D3 87 84 45 
B0 76 ED 5A 1A 8D 46 F4 96 82 82 82 18 0C C6 FE FD FB 7B D7 2B 92 4E D1 87 FE 7F D6 D6 D6 E8 36 
87 94 74 F1 E2 45 54 AE A9 A9 B9 65 CB 96 99 33 67 B6 7E 04 BB 7B F7 AE BA BA BA B9 B9 F9 C7 F6 
95 E4 43 F4 A1 2B D6 8C 19 33 AE 5F BF 7E FF FE 7D 16 8B 55 50 50 20 9F 93 D7 D3 D3 73 DE BC 79 
F2 95 1B 1B 1B 4B 4A 4A 76 EF DE FD DD 77 DF FD CF 3E D2 F7 69 7A BB 93 F7 5F DC BE 7D 9B C1 60 
60 18 36 61 C2 84 BA BA BA F4 F4 74 0C C3 D0 CB DA DA DA 5A 2B 2B 2B D4 79 C7 30 0C CD 5C F8 F6 
DB 6F FB C8 64 18 92 16 F4 A1 E1 06 44 41 41 41 65 65 A5 93 93 13 93 C9 94 48 24 2F 5E BC 70 71 
71 41 C3 DF 5C 2E 17 85 E2 FC EB AF BF 24 12 89 BA BA BA 8B 8B 0B D9 9B EE 9B 28 24 2C A9 54 FA 
BF F6 46 82 A4 9B F4 B9 2B 16 C9 A7 41 1F EA BC 93 7C 4A 90 C2 22 51 0A 64 CF B7 0F 51 58 58 98 
9C 9C AC AE AE EE E4 E4 E4 E4 E4 84 1E 59 52 53 53 D3 D3 D3 8D 8D 8D 27 4D 9A 44 A3 D1 EE DC B9 
C3 E3 F1 A6 4E 9D AA A5 A5 25 BF 8D E3 78 6C 6C 2C 9F CF 9F 32 65 8A 40 20 78 F4 E8 11 00 58 58 
58 78 7A 7A 02 40 66 66 A6 AE AE 2E 8A 63 93 91 91 F1 F4 E9 D3 C9 93 27 CB 47 07 8E 8B 8B E3 F1 
78 93 27 4F 66 B1 58 3D F2 5B C8 2B 56 1F 22 39 39 39 3F 3F 9F C5 62 5D BA 74 E9 87 1F 7E 00 80 
87 0F 1F 9E 3C 79 72 DC B8 71 15 15 15 07 0E 1C B8 7C F9 72 4A 4A 8A 85 85 C5 CA 95 2B E5 B7 01 
E0 C8 91 23 F9 F9 F9 83 06 0D 9A 3F 7F 7E 7C 7C 7C 4D 4D 8D B5 B5 35 9A 53 24 10 08 02 02 02 52 
52 52 00 20 2B 2B EB C8 91 23 03 07 0E FC FD F7 DF 89 FD 1E 3D 7A F4 F1 E3 C7 FD FA F5 5B B4 68 
51 4F FD 16 F2 8A D5 B7 18 30 60 80 97 97 97 97 97 D7 9C 39 73 B8 5C 2E 8E E3 15 15 15 62 B1 38 
30 30 10 C3 B0 F9 F3 E7 EF DD BB 57 4F 4F 6F CF 9E 3D 31 31 31 C4 36 00 18 1A 1A 36 35 35 A1 85 
8A 35 35 35 4C 26 F3 F5 EB D7 CE CE CE 00 B0 69 D3 A6 E0 E0 60 64 FF D2 A5 4B A3 46 8D 4A 4F 4F 
0F 08 08 20 76 BA 70 E1 42 00 10 0A 85 3D 38 76 43 0A AB 8F 62 6C 6C 5C 5A 5A EA E1 E1 A1 A1 A1 
71 FC F8 F1 F4 F4 F4 A0 A0 20 A1 50 88 72 9F 60 18 56 53 53 43 6C CB 64 32 53 53 D3 84 84 04 2E 
97 3B 70 E0 40 37 37 B7 DA DA 5A 36 9B 3D 7B F6 EC C0 C0 40 34 27 16 E5 7B AA A8 A8 A8 AA AA F2 
F2 F2 0A 0E 0E 0E 0D 0D 2D 2C 2C F4 F1 F1 31 31 31 A9 AA AA FA FE FB EF B7 6C D9 D2 53 FE 93 C2 
EA 73 E0 38 DE D8 D8 98 92 92 B2 79 F3 E6 A7 4F 9F DA D9 D9 6D DD BA 55 2A 95 FA F8 F8 B8 BA BA 
16 17 17 A3 20 22 36 36 36 C4 36 85 42 F9 F3 CF 3F B7 6E DD CA 66 B3 7D 3F 7B 36 84 00 00 06 AE 
49 44 41 54 7D 7D 7D 7D 7D FB F5 EB A7 A6 A6 B6 7D FB F6 9B 37 6F B2 58 AC 57 AF 5E 35 37 37 4F 
9C 38 D1 D2 D2 D2 CD CD 6D C0 80 01 34 1A 0D A5 E1 D4 D4 D4 AC AA AA 5A BA 74 E9 AE 5D BB 7A 70 
4A 19 29 AC BE 45 64 64 64 72 72 32 8F C7 0B 0B 0B 63 30 18 38 8E 2F 5A B4 C8 D1 D1 B1 B4 B4 74 
EE DC B9 C3 87 0F DF B8 71 A3 BE BE FE 94 29 53 E4 B7 01 60 C6 8C 19 1B 37 6E 44 33 F7 F3 F2 F2 
7E FC F1 47 33 33 B3 E1 C3 87 6F D8 B0 01 00 62 63 63 EB EA EA B4 B5 B5 E7 CD 9B 17 1A 1A 6A 62 
62 E2 EE EE 6E 6F 6F 6F 6F 6F 0F 00 1B 36 6C 68 68 68 D8 B6 6D 9B 96 96 D6 6F BF FD D6 23 3F 84 
1C 20 55 01 D0 1D 10 3D 24 E2 38 2E 16 8B D1 52 11 F9 6D 00 90 4A A5 62 B1 18 45 FC 92 48 24 32 
99 AC BD 94 2A 22 91 48 D9 81 C1 48 61 91 28 05 72 B8 81 44 29 90 C2 22 51 0A A4 B0 48 94 02 29 
2C 12 A5 40 0A 8B 44 29 90 C2 22 51 0A A4 B0 48 94 02 29 2C 12 A5 40 0A 4B 29 A0 95 2A BD ED 45 
6F D2 A7 DF 15 36 36 36 9E 3B 77 8E F8 A8 A9 A9 C9 E1 70 BE FC F2 4B 45 66 77 E0 38 4E 84 B6 92 
DF EE 29 AE 5E BD 2A 10 08 7C 7D 7D 0D 0C 0C 50 89 48 24 3A 7B F6 AC 86 86 86 9F 9F 9F 93 93 93 
BD BD 7D 7C 7C 7C CF EE 54 95 F8 E8 0B CE 3A 01 8F C7 43 4E 62 7F 03 00 D6 D6 D6 AF 5E BD EA B8 
E1 C9 93 27 5D 5C 5C 5A 6F F7 20 4B 96 2C 01 80 7F FF FB DF 44 49 54 54 14 00 4C 9D 3A B5 A9 A9 
29 2C 2C EC E0 C1 83 3D BE 53 15 42 05 84 65 61 61 C1 E7 F3 F9 7C 7E 51 51 D1 9C 39 73 00 60 E9 
D2 A5 A8 82 50 28 4C 49 49 89 8F 8F E7 72 B9 44 A0 C7 AC AC 2C 0F 0F 0F 5D 5D DD D4 D4 D4 A4 A4 
24 62 BB BA BA BA BD 56 CD CD CD A9 A9 A9 F9 F9 F9 CD CD CD 71 71 71 0F 1E 3C 40 D1 1F 1F 3C 78 
70 EB D6 AD 36 43 3C 3E 7E FC 18 00 BE FA EA 2B A2 04 F9 76 F5 EA 55 A9 54 9A 9A 9A 4A A4 2F A8 
A8 A8 B8 73 E7 CE ED DB B7 EB EB EB 71 1C 97 C9 64 69 69 69 2F 5F BE 44 DF BE 7C F9 32 35 35 15 
C5 DB 6D 6A 6A 4A 4D 4D 2D 2A 2A 52 C6 C1 FC C8 A8 80 B0 AC AC AC 64 7F 73 EC D8 31 00 08 0E 0E 
C6 71 FC FA F5 EB 6C 36 1B C3 30 2A 95 8A 61 D8 D2 A5 4B 91 4A 06 0E 1C 28 7F 9D 23 B6 63 62 62 
DA 6B 55 55 55 05 00 A3 47 8F FE EA AB AF 50 93 D0 D0 D0 45 8B 16 A1 6D 6F 6F EF 36 DD 73 70 70 
A0 52 A9 7C 3E 1F C7 71 B1 58 AC AF AF 6F 68 68 D8 DC DC 2C 14 0A 01 C0 D9 D9 19 C7 F1 A3 47 8F 
6A 69 69 19 18 18 30 18 0C 0E 87 83 32 6E DA D8 D8 F4 EB D7 0F 19 41 81 27 B6 6C D9 82 E3 78 42 
42 02 00 EC D9 B3 E7 63 1C 5C 25 A3 02 C2 D2 D6 D6 0E 0A 0A 0A 0A 0A 9A 33 67 0E 8B C5 72 71 71 
79 F3 E6 0D 9F CF D7 D3 D3 33 30 30 C8 C9 C9 69 68 68 F0 F5 F5 05 80 13 27 4E E0 38 5E 5B 5B CB 
62 B1 58 2C 16 4A 49 4F 6C 8B C5 E2 F6 5A 21 29 D0 E9 F4 88 88 88 7B F7 EE 61 18 A6 A1 A1 11 12 
12 92 97 97 87 4E 7C 9B 29 58 B7 6E DD 0A 00 47 8E 1C C1 71 FC D6 AD 5B 00 10 12 12 82 E3 38 21 
2C 2E 97 AB A1 A1 E1 EE EE 2E 12 89 4A 4B 4B 99 4C E6 B4 69 D3 70 1C 0F 0C 0C 04 80 B2 B2 B2 17 
2F 5E 00 80 93 93 93 97 97 17 8E E3 E1 E1 E1 00 D0 8B 19 A9 7B 10 15 10 16 8D 46 EB DF BF 7F FF 
FE FD AD AC AC D4 D4 D4 BE FC F2 CB 5B B7 6E A1 FC F5 FF FC E7 3F 51 4D 74 5E 67 CC 98 81 3E 1A 
18 18 18 18 18 B4 DE 6E AF 15 92 82 89 89 09 2A B7 B3 B3 03 80 C2 C2 42 FC EF 1B 5C 62 62 62 6B 
F7 B8 5C 2E 85 42 99 30 61 02 8E E3 68 52 79 5A 5A 1A 2E 27 AC 33 67 CE 00 80 97 97 D7 A1 43 87 
0E 1D 3A 64 67 67 A7 A9 A9 89 E3 F8 D9 B3 67 01 20 3A 3A 7A DF BE 7D 5A 5A 5A FB F6 ED D3 D4 D4 
14 89 44 E3 C7 8F 67 B3 D9 4A 39 94 1F 9D 3E FD 54 88 30 37 37 27 02 12 73 B9 DC C1 83 07 4F 99 
32 65 CD 9A 35 00 40 2C 60 42 8F 66 65 65 65 1D 9B 42 4A 6D AF 15 F1 7C 87 82 B3 A3 6A 68 BB CD 
D8 A4 1C 0E E7 AB AF BE BA 7D FB 76 75 75 F5 B5 6B D7 9C 9C 9C 5A 44 40 2D 2F 2F 07 80 FC FC FC 
D3 A7 4F 03 80 B1 B1 B1 B1 B1 B1 50 28 1C 3D 7A 34 86 61 4F 9E 3C 79 FE FC F9 C8 91 23 C7 8D 1B 
B7 62 C5 8A 47 8F 1E 3D 7E FC D8 C7 C7 A7 93 87 A7 8F A2 02 C2 92 87 C3 E1 98 98 98 E4 E4 E4 68 
6A 6A 02 40 51 51 11 2A 7F FD FA 35 00 A0 18 DA 1D 60 63 63 D3 85 56 1D 30 6F DE BC 3B 77 EE EC 
DA B5 8B C7 E3 AD 58 B1 A2 C5 B7 28 26 EF D7 5F 7F 7D E8 D0 21 00 C0 71 1C 00 30 0C D3 D1 D1 71 
76 76 7E FC F8 F1 B3 67 CF 36 6E DC E8 E0 E0 60 6E 6E 7E F8 F0 61 81 40 E0 E5 E5 D5 65 67 FA 16 
BD 7D C9 EC 08 74 81 D1 D7 D7 DF BE 7D FB F6 ED DB B7 6E DD 3A 75 EA 54 00 B0 B1 B1 A9 AB AB B3 
B1 B1 D1 D4 D4 3C 77 EE 5C 52 52 92 8B 8B 0B 95 4A 25 B2 E5 70 38 1C 2A 95 7A ED DA B5 B2 B2 32 
F9 ED C6 C6 C6 36 5B C9 77 B7 71 1C 77 75 75 05 00 94 94 2B 28 28 08 00 12 12 12 DA F4 10 4D 24 
67 30 18 14 0A E5 DD BB 77 A8 90 B0 56 5B 5B 6B 6C 6C 6C 60 60 90 90 90 10 17 17 67 6A 6A 8A FA 
58 38 8E AF 58 B1 02 8D C6 A1 AC 9C 73 E7 CE 45 1F D1 FD F7 13 A0 AF 0B 0B 93 83 4A A5 9A 99 99 
CD 9A 35 0B 8D 63 E5 E4 E4 8C 18 31 82 42 A1 60 18 66 61 61 21 9F 58 75 FD FA F5 A8 FE D9 B3 67 
E5 B7 DB 6B 25 14 0A 31 0C 1B 38 70 20 6A EE E6 E6 86 61 18 12 56 70 70 30 86 61 ED 09 0B C7 F1 
80 80 00 94 04 8A 28 91 B7 96 94 94 E4 E0 E0 80 FC 1F 3A 74 68 41 41 01 AA 13 1D 1D 8D 61 18 4A 
62 80 E3 F8 89 13 27 30 0C B3 B5 B5 ED E9 43 D8 6B A8 FC 9C F7 FA FA 7A 91 48 44 74 8F 08 AA AA 
AA 18 0C 86 BA BA 7A 8B ED 8E 5B 29 09 94 B4 E7 A3 ED AE 2F A0 F2 C2 22 E9 9B 90 2F A1 49 94 02 
29 2C 12 A5 40 0A 8B 44 29 90 C2 22 51 0A A4 B0 48 94 02 29 2C 12 A5 40 0A 8B 44 29 90 C2 22 51 
0A A4 B0 48 94 02 29 2C 12 A5 40 0A 8B 44 29 90 C2 22 51 0A A4 B0 48 94 02 29 2C 12 A5 40 0A 8B 
44 29 90 C2 22 51 0A A4 B0 48 94 C2 FF 01 9F 3B 04 C6 7B 25 18 32 00 00 00 00 49 45 4E 44 AE 42 
60 82 
EndData
$EndBitmap
Text Notes 5400 6980 0    50   ~ 0
BTS145
Text Notes 2800 7190 0    50   ~ 0
LP2950
$EndSCHEMATC
